/* XPM */
static char *cr_setup_xpm[] = {
/* columns rows colors chars-per-pixel */
"60 375 1970 2",
"   c Gray0",
".  c Transparent",
"X  c #010100000101",
"o  c #010100000202",
"O  c #010100000303",
"+  c #010101010202",
"@  c #010101010303",
"#  c #020201010303",
"$  c #010100000404",
"%  c #010101010404",
"&  c #020201010404",
"*  c #020201010505",
"=  c #030301010505",
"-  c #020201010606",
";  c #020201010707",
":  c #030301010606",
">  c #030301010707",
",  c #030302020505",
"<  c #030302020606",
"1  c #030302020707",
"2  c #040402020707",
"3  c #050504040505",
"4  c Gray2",
"5  c #060606060707",
"6  c #030301010909",
"7  c #030302020808",
"8  c #040401010808",
"9  c #040401010909",
"0  c #050501010808",
"q  c #040402020808",
"w  c #040402020909",
"e  c #050502020909",
"r  c #050503030909",
"t  c #050503030b0b",
"y  c #060602020808",
"u  c #060603030808",
"i  c #060603030909",
"p  c #070702020808",
"a  c #070703030808",
"s  c #070702020a0a",
"d  c #070702020b0b",
"f  c #070704040808",
"g  c #060604040b0b",
"h  c #080803030808",
"j  c #080803030909",
"k  c #080803030a0a",
"l  c #090903030b0b",
"z  c #080802020d0d",
"x  c #080803030c0c",
"c  c #080803030d0d",
"v  c #080802020e0e",
"b  c #090903030f0f",
"n  c #080804040808",
"m  c #090904040808",
"M  c #090904040909",
"N  c #090905050808",
"B  c #090905050909",
"V  c #090904040a0a",
"C  c #090904040b0b",
"Z  c #090905050b0b",
"A  c #090906060b0b",
"S  c #090905050c0c",
"D  c #090905050d0d",
"F  c #090904040e0e",
"G  c #090904040f0f",
"H  c #090906060c0c",
"J  c #090906060d0d",
"K  c #090906060f0f",
"L  c #080808080909",
"P  c #090908080909",
"I  c #090909090a0a",
"U  c Gray5",
"Y  c #0d0d0d0d0f0f",
"T  c #0f0f0e0e0f0f",
"R  c #080802021010",
"E  c #090903031111",
"W  c #090902021313",
"Q  c #090903031313",
"!  c #090902021515",
"~  c #090903031717",
"^  c #090905051212",
"/  c #090906061010",
"(  c #090907071313",
")  c #090904041414",
"_  c #090902021a1a",
"`  c #090903031b1b",
"'  c #090902021f1f",
"]  c #090906061818",
"[  c #090905051d1d",
"{  c #080808081d1d",
"}  c #080808081f1f",
"|  c #101010101111",
" . c #131313131717",
".. c #151515151515",
"X. c #151515151616",
"o. c #161616161616",
"O. c #161616161717",
"+. c #171717171818",
"@. c #181817171a1a",
"#. c #181818181818",
"$. c #191919191919",
"%. c #191919191a1a",
"&. c #191918181f1f",
"*. c #1b1b1b1b1e1e",
"=. c #1d1d1c1c1f1f",
"-. c #090905052626",
";. c #090906062626",
":. c #0d0d07072424",
">. c #090904042c2c",
",. c #0e0e08082525",
"<. c #0f0f09092626",
"1. c #080808082929",
"2. c #090903033333",
"3. c #090904043030",
"4. c #090903033838",
"5. c #080808083838",
"6. c #10100a0a2727",
"7. c #11110b0b2828",
"8. c #12120c0c2929",
"9. c #13130d0d2a2a",
"0. c #14140f0f2b2b",
"q. c #151510102c2c",
"w. c #171711112c2c",
"e. c #181812122d2d",
"r. c #191913132e2e",
"t. c #1a1a16162828",
"y. c #1a1a14142f2f",
"u. c #1f1f1f1f2020",
"i. c #1b1b15153030",
"p. c #1c1c16163131",
"a. c #1d1d17173232",
"s. c #1c1c18183030",
"d. c #1e1e19193333",
"f. c #1f1f1a1a3434",
"g. c #20201f1f2323",
"h. c #24241f1f2c2c",
"j. c #20201b1b3535",
"k. c #21211c1c3636",
"l. c #22221d1d3737",
"z. c #24241e1e3838",
"x. c #25251f1f3939",
"c. c #212120202626",
"v. c #222220202626",
"b. c #222221212727",
"n. c #232322222525",
"m. c #232322222626",
"M. c #242423232727",
"N. c #242424242525",
"B. c #262625252727",
"V. c #262626262727",
"C. c #262623232f2f",
"Z. c #262624242b2b",
"A. c #272725252f2f",
"S. c #292926262d2d",
"D. c #292927272e2e",
"F. c #292928282a2a",
"G. c #2a2a2a2a2a2a",
"H. c #2a2a29292e2e",
"J. c #2a2a2a2a2c2c",
"K. c #2c2c28282e2e",
"L. c #2d2d2c2c2e2e",
"P. c #2d2d2c2c2f2f",
"I. c #2f2f2c2c2f2f",
"U. c #262620203a3a",
"Y. c #272721213b3b",
"T. c #292927273030",
"R. c #282823233c3c",
"E. c #2a2a27273939",
"W. c #292924243d3d",
"Q. c #2a2a25253e3e",
"!. c #2b2b26263f3f",
"~. c #2f2f2e2e3030",
"^. c #2f2f2f2f3131",
"/. c #2f2f2f2f3232",
"(. c #2c2c29293838",
"). c #31312f2f3535",
"_. c #32322e2e3b3b",
"`. c #313131313232",
"'. c #333332323535",
"]. c #343434343535",
"[. c #353534343737",
"{. c #353533333a3a",
"}. c #343431313c3c",
"|. c #353534343838",
" X c #353534343a3a",
".X c #373735353b3b",
"XX c #373737373838",
"oX c #363634343c3c",
"OX c #373734343e3e",
"+X c #373736363e3e",
"@X c #090903034646",
"#X c #090904044141",
"$X c #080806064141",
"%X c #090904044646",
"&X c #090903034b4b",
"*X c #080808084646",
"=X c #080809094646",
"-X c #0e0e0c0c4545",
";X c #080809094b4b",
":X c #090903035151",
">X c #080806065757",
",X c #080807075757",
"<X c #090903035d5d",
"1X c #080809095151",
"2X c #080809095d5d",
"3X c #090904046b6b",
"4X c #080809096b6b",
"5X c #090903037979",
"6X c #090904047979",
"7X c #080807077979",
"8X c #080809097979",
"9X c #2c2c27274040",
"0X c #2d2d28284141",
"qX c #2e2e29294242",
"wX c #30302a2a4343",
"eX c #31312c2c4444",
"rX c #32322d2d4545",
"tX c #33332e2e4646",
"yX c #34342f2f4747",
"uX c #343430304343",
"iX c #353532324343",
"pX c #373732324646",
"aX c #353530304848",
"sX c #363631314949",
"dX c #373732324a4a",
"fX c #3a3a37374343",
"gX c #383834344747",
"hX c #3b3b37374545",
"jX c #383833334b4b",
"kX c #393934344c4c",
"lX c #3a3a36364d4d",
"zX c #3b3b37374e4e",
"xX c #3d3d3b3b4343",
"cX c #3d3d3b3b4444",
"vX c #3d3d3b3b4545",
"bX c #3d3d3a3a4646",
"nX c #3d3d3c3c4343",
"mX c #3f3f3d3d4444",
"MX c #3d3d3a3a4848",
"NX c #3d3d38384f4f",
"BX c #393934345d5d",
"VX c #3e3e39395050",
"CX c #3f3f3a3a5151",
"ZX c #3f3f3a3a5252",
"AX c #3f3f3a3a5454",
"SX c #3d3d38385959",
"DX c #2c2c2d2d7373",
"FX c #33332a2a6f6f",
"GX c #393926267a7a",
"HX c #363632327b7b",
"JX c #353531317f7f",
"KX c #393933337d7d",
"LX c #3c3c37377b7b",
"PX c #43433f3f4545",
"IX c #41413e3e4d4d",
"UX c #40403b3b5252",
"YX c #41413c3c5353",
"TX c #43433f3f5252",
"RX c #41413c3c5555",
"EX c #42423d3d5454",
"WX c #43433e3e5555",
"QX c #42423e3e5858",
"!X c #454538385a5a",
"~X c #46463a3a5858",
"^X c #48483c3c5b5b",
"/X c #414127277f7f",
"(X c #40403b3b6c6c",
")X c #40403c3c7878",
"_X c #424241414747",
"`X c #434342424444",
"'X c #434342424646",
"]X c #424241414848",
"[X c #434341414848",
"{X c #434342424848",
"}X c #464645454a4a",
"|X c #474747474949",
" o c #484848484848",
".o c #494948484c4c",
"Xo c #454541415151",
"oo c #474743435252",
"Oo c #444440405656",
"+o c #454541415757",
"@o c #474744445151",
"#o c #474744445353",
"$o c #444440405858",
"%o c #464642425858",
"&o c #474742425858",
"*o c #474743435959",
"=o c #464642425a5a",
"-o c #484845455252",
";o c #494947475252",
":o c #494945455656",
">o c #4b4b42425d5d",
",o c #484844445a5a",
"<o c #4a4a45455b5b",
"1o c #4b4b47475858",
"2o c #4b4b46465c5c",
"3o c #4b4b46465d5d",
"4o c #4c4c47475d5d",
"5o c #4c4c47475e5e",
"6o c #4f4f4e4e5050",
"7o c #4d4d4c4c5454",
"8o c #4f4f4c4c5656",
"9o c #4d4d48485e5e",
"0o c #4d4d49495e5e",
"qo c #4e4e4a4a5f5f",
"wo c #50504e4e5555",
"eo c #50504e4e5959",
"ro c #50504f4f5858",
"to c #51514f4f5a5a",
"yo c #50504d4d5e5e",
"uo c #51514f4f5c5c",
"io c #515150505555",
"po c #535352525555",
"ao c #525250505c5c",
"so c #535351515c5c",
"do c #545451515c5c",
"fo c #545451515d5d",
"go c #555552525f5f",
"ho c #565655555858",
"jo c #565655555959",
"ko c #565655555a5a",
"lo c #575756565a5a",
"zo c #565655555d5d",
"xo c #565654545e5e",
"co c #575755555f5f",
"vo c #585857575b5b",
"bo c #5b5b5a5a5d5d",
"no c #5c5c5b5b5d5d",
"mo c #474742426363",
"Mo c #494944446b6b",
"No c #4e4e4a4a6161",
"Bo c #4f4f4b4b6060",
"Vo c #4f4f4b4b6464",
"Co c #494945457676",
"Zo c #4b4b44447a7a",
"Ao c #50504c4c6161",
"So c #51514d4d6060",
"Do c #51514d4d6161",
"Fo c #50504c4c6262",
"Go c #51514d4d6262",
"Ho c #52524e4e6161",
"Jo c #52524e4e6363",
"Ko c #51514d4d6666",
"Lo c #52524e4e6565",
"Po c #53534f4f6464",
"Io c #53534f4f6565",
"Uo c #56564e4e6666",
"Yo c #50504a4a6969",
"To c #51514d4d6969",
"Ro c #58584b4b6b6b",
"Eo c #54544f4f7474",
"Wo c #555553536060",
"Qo c #565653536262",
"!o c #545450506464",
"~o c #555551516565",
"^o c #545450506666",
"/o c #565652526464",
"(o c #575752526666",
")o c #575753536666",
"_o c #565650506e6e",
"`o c #585856566060",
"'o c #585854546767",
"]o c #595956566464",
"[o c #5a5a56566767",
"{o c #5a5a57576767",
"}o c #595955556868",
"|o c #585854546b6b",
" O c #5a5a55556969",
".O c #5a5a56566969",
"XO c #5a5a56566b6b",
"oO c #5b5b57576a6a",
"OO c #585854546e6e",
"+O c #5a5a56566f6f",
"@O c #5c5c53536b6b",
"#O c #5f5f54546e6e",
"$O c #5a5a58586363",
"%O c #5c5c59596666",
"&O c #5c5c5a5a6666",
"*O c #5e5e5d5d6464",
"=O c #5c5c59596969",
"-O c #5c5c58586b6b",
";O c #5d5d5a5a6969",
":O c #5d5d5a5a6a6a",
">O c #5d5d59596c6c",
",O c #5e5e59596d6d",
"<O c #5e5e5a5a6d6d",
"1O c #5f5f5a5a6c6c",
"2O c #5f5f5b5b6c6c",
"3O c #5f5f5b5b6e6e",
"4O c #5b5b57577070",
"5O c #5a5a50507e7e",
"6O c #5c5c58587070",
"7O c #5f5f5a5a7b7b",
"8O c #656541417777",
"9O c #60605e5e6363",
"0O c #60605f5f6666",
"qO c #60605b5b6f6f",
"wO c #60605d5d6a6a",
"eO c #60605d5d6b6b",
"rO c #60605e5e6b6b",
"tO c #60605c5c6f6f",
"yO c #61615d5d6e6e",
"uO c #62625e5e6f6f",
"iO c #626254547272",
"pO c #626256567171",
"aO c #646453537373",
"sO c #656553537474",
"dO c #676755557777",
"fO c #60605b5b7777",
"gO c #61615e5e7070",
"hO c #62625e5e7070",
"jO c #63635f5f7171",
"kO c #63635f5f7272",
"lO c #60605c5c7777",
"zO c #63635e5e7575",
"xO c #63635f5f7676",
"cO c #656559597474",
"vO c #62625e5e7e7e",
"bO c #64645a5a7d7d",
"nO c #636363636666",
"mO c #646464646565",
"MO c #656564646666",
"NO c #626260606d6d",
"BO c #636360606f6f",
"VO c #646461616e6e",
"CO c #646461616f6f",
"ZO c #646462626d6d",
"AO c #656563636e6e",
"SO c #676764646f6f",
"DO c #686867676b6b",
"FO c #696968686a6a",
"GO c #696969696b6b",
"HO c #696968686c6c",
"JO c #6a6a68686d6d",
"KO c #6b6b6a6a6d6d",
"LO c #6c6c6c6c6f6f",
"PO c #6e6e6d6d6f6f",
"IO c #636360607070",
"UO c #636360607171",
"YO c #636360607777",
"TO c #646460607171",
"RO c #656561617171",
"EO c #646460607272",
"WO c #646460607373",
"QO c #656561617272",
"!O c #656561617373",
"~O c #656562627272",
"^O c #656562627676",
"/O c #666661617474",
"(O c #666662627474",
")O c #666662627575",
"_O c #676762627575",
"`O c #676763637474",
"'O c #676763637575",
"]O c #676762627676",
"[O c #676763637676",
"{O c #676764647070",
"}O c #676761617b7b",
"|O c #656562627e7e",
" + c #656563637f7f",
".+ c #676760607f7f",
"X+ c #686865657272",
"o+ c #696966667373",
"O+ c #696967677373",
"++ c #686864647676",
"@+ c #696965657676",
"#+ c #696965657777",
"$+ c #6a6a66667474",
"%+ c #6a6a67677474",
"&+ c #686865657979",
"*+ c #6a6a66667878",
"=+ c #686865657d7d",
"-+ c #6b6b69697171",
";+ c #6a6a69697373",
":+ c #6b6b68687474",
">+ c #6c6c69697171",
",+ c #6c6c6a6a7676",
"<+ c #6f6f6e6e7474",
"1+ c #6b6b68687979",
"2+ c #6c6c68687979",
"3+ c #6c6c68687a7a",
"4+ c #6c6c69697a7a",
"5+ c #6c6c69697b7b",
"6+ c #6d6d6a6a7b7b",
"7+ c #6e6e6b6b7a7a",
"8+ c #6d6d6a6a7c7c",
"9+ c #6e6e6b6b7c7c",
"0+ c #6f6f6c6c7979",
"q+ c #70706e6e7676",
"w+ c #71716f6f7676",
"e+ c #71716f6f7777",
"r+ c #70706f6f7878",
"t+ c #72726f6f7979",
"y+ c #70706c6c7c7c",
"u+ c #70706c6c7d7d",
"i+ c #71716d6d7e7e",
"p+ c #70706e6e7c7c",
"a+ c #72726e6e7f7f",
"s+ c #717170707878",
"d+ c #727270707a7a",
"f+ c #737370707f7f",
"g+ c #747472727a7a",
"h+ c #747472727c7c",
"j+ c #747473737e7e",
"k+ c #777773737e7e",
"l+ c #777776767b7b",
"z+ c #757574747c7c",
"x+ c #767675757e7e",
"c+ c #777774747f7f",
"v+ c #797977777d7d",
"b+ c #7a7a79797d7d",
"n+ c #080805058181",
"m+ c #080807078181",
"M+ c #080809098888",
"N+ c #090903039090",
"B+ c #090903039797",
"V+ c #080805059090",
"C+ c #080807079090",
"Z+ c #080804049797",
"A+ c #080807079e9e",
"S+ c #080809099e9e",
"D+ c #161611118d8d",
"F+ c #08080404acac",
"G+ c #08080505acac",
"H+ c #08080606acac",
"J+ c #08080808a5a5",
"K+ c #09090909a5a5",
"L+ c #0a0a0a0aa5a5",
"P+ c #08080808b3b3",
"I+ c #09090909b3b3",
"U+ c #2b2b27279191",
"Y+ c #292922229f9f",
"T+ c #393934348080",
"R+ c #3b3b39399c9c",
"E+ c #25252121adad",
"W+ c #32322f2fb0b0",
"Q+ c #3b3b3737a8a8",
"!+ c #3e3e3e3ea9a9",
"~+ c #3e3e3d3dbcbc",
"^+ c #08080505c4c4",
"/+ c #09090404c4c4",
"(+ c #09090303cece",
")+ c #08080404caca",
"_+ c #08080909c4c4",
"`+ c #09090909caca",
"'+ c #09090909cece",
"]+ c #09090303d3d3",
"[+ c #08080404d7d7",
"{+ c #08080303dbdb",
"}+ c #09090505d9d9",
"|+ c #08080404dbdb",
" @ c #09090404dada",
".@ c #09090505dada",
"X@ c #09090505dbdb",
"o@ c #0a0a0505d9d9",
"O@ c #0a0a0505dada",
"+@ c #0a0a0505dbdb",
"@@ c #0b0b0505dada",
"#@ c #0b0b0505dbdb",
"$@ c #0a0a0606d9d9",
"%@ c #0b0b0606d9d9",
"&@ c #09090505dcdc",
"*@ c #09090505dddd",
"=@ c #08080404dede",
"-@ c #08080505dfdf",
";@ c #09090404dede",
":@ c #09090505dede",
">@ c #09090606dcdc",
",@ c #0b0b0505dcdc",
"<@ c #0b0b0505dddd",
"1@ c #0a0a0606dcdc",
"2@ c #0a0a0606dddd",
"3@ c #0b0b0707dddd",
"4@ c #0d0d0707d9d9",
"5@ c #0c0c0606dada",
"6@ c #0c0c0606dbdb",
"7@ c #0f0f0707dbdb",
"8@ c #0c0c0505dede",
"9@ c #0c0c0606dcdc",
"0@ c #0c0c0606dddd",
"q@ c #0d0d0606dddd",
"w@ c #0d0d0606dfdf",
"e@ c #0f0f0707dddd",
"r@ c #08080808d3d3",
"t@ c #0a0a0909dbdb",
"y@ c #08080808dede",
"u@ c #09090909dede",
"i@ c #0a0a0909dede",
"p@ c #0b0b0808dede",
"a@ c #0c0c0808dbdb",
"s@ c #0e0e0808d9d9",
"d@ c #0f0f0808d9d9",
"f@ c #0f0f0909d9d9",
"g@ c #0e0e0808dada",
"h@ c #0f0f0808dada",
"j@ c #0f0f0808dbdb",
"k@ c #0f0f0909dada",
"l@ c #0f0f0808dcdc",
"z@ c #0f0f0909dfdf",
"x@ c #10100909d9d9",
"c@ c #10100808dbdb",
"v@ c #10100909dada",
"b@ c #11110808dada",
"n@ c #11110808dbdb",
"m@ c #12120909d9d9",
"M@ c #13130909dada",
"N@ c #13130909dbdb",
"B@ c #10100808dcdc",
"V@ c #10100808dddd",
"C@ c #10100909dcdc",
"Z@ c #11110808dcdc",
"A@ c #11110909dcdc",
"S@ c #11110909dddd",
"D@ c #11110808dede",
"F@ c #12120909dcdc",
"G@ c #13130909dddd",
"H@ c #12120909dfdf",
"J@ c #14140909dada",
"K@ c #14140909dbdb",
"L@ c #15150909dada",
"P@ c #15150909dbdb",
"I@ c #17170909d9d9",
"U@ c #17170909dada",
"Y@ c #15150909dcdc",
"T@ c #14140909dede",
"R@ c #17170909dcdc",
"E@ c #17170909dddd",
"W@ c #17170909dede",
"Q@ c #17170909dfdf",
"!@ c #18180909d9d9",
"~@ c #18180909dada",
"^@ c #18180909dbdb",
"/@ c #1b1b0909d9d9",
"(@ c #1d1d0909d9d9",
")@ c #1d1d0909dada",
"_@ c #1d1d0909dbdb",
"`@ c #1f1f0909d9d9",
"'@ c #1f1f0909dada",
"]@ c #1d1d0909dcdc",
"[@ c #1d1d0909dede",
"{@ c #1e1e1a1ac7c7",
"}@ c #08080303e1e1",
"|@ c #08080404e0e0",
" # c #09090505e0e0",
".# c #08080404e2e2",
"X# c #08080505e2e2",
"o# c #08080606e1e1",
"O# c #0a0a0707e0e0",
"+# c #0a0a0707e1e1",
"@# c #08080404e4e4",
"## c #08080404e5e5",
"$# c #08080505e4e4",
"%# c #08080505e6e6",
"&# c #09090707e5e5",
"*# c #09090707e7e7",
"=# c #0a0a0707e4e4",
"-# c #0c0c0505e0e0",
";# c #0d0d0606e1e1",
":# c #0e0e0606e0e0",
"># c #0e0e0606e1e1",
",# c #0f0f0606e2e2",
"<# c #0e0e0505e4e4",
"1# c #0f0f0606e4e4",
"2# c #08080303ecec",
"3# c #08080404e8e8",
"4# c #08080404e9e9",
"5# c #08080505e8e8",
"6# c #08080404eaea",
"7# c #08080404ebeb",
"8# c #08080505eaea",
"9# c #08080606e8e8",
"0# c #09090707e9e9",
"q# c #09090606eaea",
"w# c #08080404eded",
"e# c #08080404eeee",
"r# c #08080404efef",
"t# c #08080505eeee",
"y# c #08080505efef",
"u# c #09090606ecec",
"i# c #09090707eded",
"p# c #08080606eeee",
"a# c #08080606efef",
"s# c #09090606efef",
"d# c #0f0f0606eaea",
"f# c #08080808e1e1",
"g# c #08080808e4e4",
"h# c #08080808e6e6",
"j# c #09090909e6e6",
"k# c #0a0a0808e5e5",
"l# c #0b0b0808e4e4",
"z# c #0b0b0808e5e5",
"x# c #0a0a0808e7e7",
"c# c #0f0f0909e1e1",
"v# c #0f0f0909e3e3",
"b# c #0d0d0909e4e4",
"n# c #0d0d0909e6e6",
"m# c #0d0d0909e7e7",
"M# c #0f0f0909e5e5",
"N# c #0e0e0909e6e6",
"B# c #0f0f0909e7e7",
"V# c #09090808ebeb",
"C# c #0b0b0909e8e8",
"Z# c #0a0a0808eaea",
"A# c #0b0b0909eaea",
"S# c #09090808eded",
"D# c #09090808efef",
"F# c #0a0a0909eded",
"G# c #0a0a0808eeee",
"H# c #0a0a0909efef",
"J# c #0b0b0909efef",
"K# c #0f0f0909e8e8",
"L# c #0f0f0909eaea",
"P# c #0f0f0909ebeb",
"I# c #0c0c0909ecec",
"U# c #0c0c0909eeee",
"Y# c #0d0d0909efef",
"T# c #0e0e0909eeee",
"R# c #0f0f0909eeee",
"E# c #08080404f0f0",
"W# c #08080404f1f1",
"Q# c #08080505f1f1",
"!# c #08080606f0f0",
"~# c #08080606f1f1",
"^# c #09090707f0f0",
"/# c #09090808f0f0",
"(# c #09090808f1f1",
")# c #0a0a0909f1f1",
"_# c #0c0c0909f1f1",
"`# c #0d0d0909f0f0",
"'# c #0e0e0909f1f1",
"]# c #0f0f0909f1f1",
"[# c #11110707e0e0",
"{# c #10100606e5e5",
"}# c #11110707e5e5",
"|# c #10100606e6e6",
" $ c #12120707e7e7",
".$ c #13130707e8e8",
"X$ c #15150707eeee",
"o$ c #17170707efef",
"O$ c #13130808e1e1",
"+$ c #10100909e4e4",
"@$ c #12120909e5e5",
"#$ c #14140808e0e0",
"$$ c #15150909e0e0",
"%$ c #14140808e2e2",
"&$ c #14140909e3e3",
"*$ c #17170909e2e2",
"=$ c #14140909e5e5",
"-$ c #15150808e4e4",
";$ c #11110909e8e8",
":$ c #13130808efef",
">$ c #17170808ebeb",
",$ c #15150808ecec",
"<$ c #15150808eded",
"1$ c #14140808eeee",
"2$ c #18180909e0e0",
"3$ c #18180909e2e2",
"4$ c #18180909e3e3",
"5$ c #1b1b0808e0e0",
"6$ c #1a1a0909e2e2",
"7$ c #1b1b0909e5e5",
"8$ c #1d1d0909e2e2",
"9$ c #1d1d0808e5e5",
"0$ c #1d1d0909e7e7",
"q$ c #1d1d0a0ae7e7",
"w$ c #1f1f0808e4e4",
"e$ c #18180808eaea",
"r$ c #1a1a0808e9e9",
"t$ c #1b1b0808e8e8",
"y$ c #1b1b0909e8e8",
"u$ c #1d1d0909e8e8",
"i$ c #1d1d0909eaea",
"p$ c #1f1f0909eaea",
"a$ c #1f1f0909ebeb",
"s$ c #1d1d0909eded",
"d$ c #13130606f2f2",
"f$ c #14140606f2f2",
"g$ c #10100909f1f1",
"h$ c #12120909f0f0",
"j$ c #10100f0ff0f0",
"k$ c #18180707f3f3",
"l$ c #18180606fafa",
"z$ c #1b1b0606ffff",
"x$ c #1f1f0606ffff",
"c$ c #1f1f0707ffff",
"v$ c #1b1b0808f2f2",
"b$ c #1d1d0808f4f4",
"n$ c #21210909d9d9",
"m$ c #23230808d9d9",
"M$ c #23230909dbdb",
"N$ c #21210909dcdc",
"B$ c #23230909dcdc",
"V$ c #23230909dddd",
"C$ c #26260909dbdb",
"Z$ c #26260909dcdc",
"A$ c #29290808d9d9",
"S$ c #29290909dddd",
"D$ c #29290808dfdf",
"F$ c #29290909dfdf",
"G$ c #2c2c0808d9d9",
"H$ c #2c2c0808dada",
"J$ c #2c2c0808dddd",
"K$ c #2c2c0808dede",
"L$ c #20201b1bc4c4",
"P$ c #26261d1dc2c2",
"I$ c #29291b1bc0c0",
"U$ c #2e2e1c1cc6c6",
"Y$ c #33330808dada",
"T$ c #33330808dbdb",
"R$ c #30300808dcdc",
"E$ c #30300909dfdf",
"W$ c #38380808dada",
"Q$ c #38380808dbdb",
"!$ c #3c3c0808dada",
"~$ c #35351313dbdb",
"^$ c #3b3b1a1ad9d9",
"/$ c #21210808e2e2",
"($ c #21210909e2e2",
")$ c #23230808e1e1",
"_$ c #21210808e4e4",
"`$ c #21210909e4e4",
"'$ c #26260808e0e0",
"]$ c #21210909ebeb",
"[$ c #21210909eded",
"{$ c #23230909eded",
"}$ c #23230909efef",
"|$ c #26260909efef",
" % c #29290909e2e2",
".% c #23230707ffff",
"X% c #26260707ffff",
"o% c #21210909f0f0",
"O% c #21210909f1f1",
"+% c #23230909f2f2",
"@% c #26260909f0f0",
"#% c #26260909f1f1",
"$% c #26260909f3f3",
"%% c #26260909f4f4",
"&% c #26260808fefe",
"*% c #26260808ffff",
"=% c #2c2c0707ffff",
"-% c #29290909f1f1",
";% c #29290909f3f3",
":% c #29290909f7f7",
">% c #2c2c0909f2f2",
",% c #33330909e1e1",
"<% c #38380909e4e4",
"1% c #3c3c0909eaea",
"2% c #33330707ffff",
"3% c #30300909f7f7",
"4% c #38380909f8f8",
"5% c #38380808ffff",
"6% c #3c3c0909f9f9",
"7% c #3c3c0909ffff",
"8% c #36361f1feeee",
"9% c #33331919f0f0",
"0% c #2e2e2727c6c6",
"q% c #2f2f2929c9c9",
"w% c #38382828cccc",
"e% c #34342525d8d8",
"r% c #34343131d2d2",
"t% c #23232222ecec",
"y% c #2d2d2c2ceaea",
"u% c #47472b2b8282",
"i% c #434335359a9a",
"p% c #515133338989",
"a% c #49493636bebe",
"s% c #64643e3e8e8e",
"d% c #6d6d30308080",
"f% c #41410808d9d9",
"g% c #46460808d9d9",
"h% c #4b4b0808d9d9",
"j% c #4b4b0808dfdf",
"k% c #51510808d9d9",
"l% c #57570808d9d9",
"z% c #57570808dddd",
"x% c #5d5d0808dada",
"c% c #46460808e2e2",
"v% c #4b4b0808e8e8",
"b% c #4b4b0808eaea",
"n% c #41410909f1f1",
"m% c #41410909f6f6",
"M% c #41410909ffff",
"N% c #4b4b0909fafa",
"B% c #51510808e0e0",
"V% c #51510808ecec",
"C% c #57570808e8e8",
"Z% c #57570808ebeb",
"A% c #5d5d0808e8e8",
"S% c #5d5d0808e9e9",
"D% c #5d5d0808eeee",
"F% c #5d5d0808efef",
"G% c #51510909f2f2",
"H% c #57570909f3f3",
"J% c #51510909ffff",
"K% c #57570909f8f8",
"L% c #57570808ffff",
"P% c #57570909fefe",
"I% c #57570909ffff",
"U% c #5d5d0808ffff",
"Y% c #5e5e1313fdfd",
"T% c #4c4c2424cbcb",
"R% c #43433e3ec1c1",
"E% c #4a4a3333d5d5",
"W% c #4e4e3838d1d1",
"Q% c #49493939dada",
"!% c #5a5a3636eeee",
"~% c #64640808dbdb",
"^% c #6b6b0808dbdb",
"/% c #72720808dcdc",
"(% c #79790808dddd",
")% c #71711414cbcb",
"_% c #64640808e2e2",
"`% c #64640808f0f0",
"'% c #64640808f2f2",
"]% c #64640808ffff",
"[% c #64640909ffff",
"{% c #6b6b0808ffff",
"}% c #6b6b0909ffff",
"|% c #68681919efef",
" & c #79790808e8e8",
".& c #79790808eeee",
"X& c #72720808f5f5",
"o& c #72720808ffff",
"O& c #72720909ffff",
"+& c #79790808f0f0",
"@& c #79790808f5f5",
"#& c #79790808f7f7",
"$& c #79790808fcfc",
"%& c #79790808ffff",
"&& c #79790909ffff",
"*& c #7f7f1919efef",
"=& c #7b7b1212f9f9",
"-& c #69693a3ad3d3",
";& c #6f6f2121e5e5",
":& c #69693b3be6e6",
">& c #72722c2ce6e6",
",& c #454541418181",
"<& c #4c4c45458686",
"1& c #4a4a47478888",
"2& c #4b4b47478a8a",
"3& c #4e4e48489f9f",
"4& c #505049499595",
"5& c #5c5c43439696",
"6& c #59594d4d9090",
"7& c #5e5e57578282",
"8& c #5a5a57578f8f",
"9& c #5d5d59598888",
"0& c #555551519c9c",
"q& c #595953539393",
"w& c #59594545aeae",
"e& c #797948488888",
"r& c #7d7d4f4f8d8d",
"t& c #717156568181",
"y& c #777753538787",
"u& c #737359598181",
"i& c #71715e5e8181",
"p& c #797953538787",
"a& c #7e7e59598c8c",
"s& c #777751519090",
"d& c #686865658080",
"f& c #696965658989",
"g& c #6f6f6a6a8080",
"h& c #656561619494",
"j& c #717166668080",
"k& c #757563638e8e",
"l& c #70706c6c8282",
"z& c #72726e6e8080",
"x& c #73736e6e8080",
"c& c #73736f6f8080",
"v& c #73736f6f8181",
"b& c #75756a6a8383",
"n& c #75756b6b8383",
"m& c #76766f6f8787",
"M& c #72726b6b8a8a",
"N& c #78786c6c8c8c",
"B& c #7d7d6f6f8b8b",
"V& c #737361619292",
"C& c #747470708181",
"Z& c #747471718181",
"A& c #757571718282",
"S& c #757572728282",
"D& c #767672728383",
"F& c #767673738383",
"G& c #777770708585",
"H& c #777775758282",
"J& c #777774748484",
"K& c #777774748585",
"L& c #777774748787",
"P& c #787876768282",
"I& c #7a7a77778282",
"U& c #787875758585",
"Y& c #797976768686",
"T& c #7a7a76768787",
"R& c #7a7a77778787",
"E& c #7b7b77778787",
"W& c #797975758888",
"Q& c #7a7a77778888",
"!& c #7b7b77778888",
"~& c #7b7b79798383",
"^& c #7b7b7a7a8080",
"/& c #7b7b7a7a8282",
"(& c #7b7b79798787",
")& c #7c7c79798787",
"_& c #7d7d7b7b8686",
"`& c #7e7e7c7c8484",
"'& c #7f7f7e7e8484",
"]& c #7b7b78788888",
"[& c #7b7b79798d8d",
"{& c #7b7b79798f8f",
"}& c #7d7d79798989",
"|& c #7d7d78788b8b",
" * c #7d7d79798a8a",
".* c #7d7d7a7a8888",
"X* c #7d7d7a7a8b8b",
"o* c #7e7e7a7a8a8a",
"O* c #7e7e7b7b8a8a",
"+* c #7f7f7b7b8b8b",
"@* c #7e7e7b7b8d8d",
"#* c #7f7f7a7a8d8d",
"$* c #7f7f7c7c8b8b",
"%* c #7f7f7c7c8e8e",
"&* c #757570709898",
"** c #7e7e77779191",
"=* c #7d7d79799191",
"-* c #7b7b78789f9f",
";* c #64646262b1b1",
":* c #6e6e6868b4b4",
">* c #74746565a0a0",
",* c #7c7c7979b6b6",
"<* c #42424040dddd",
"1* c #53534f4fcdcd",
"2* c #51514646d8d8",
"3* c #5e5e5c5cd8d8",
"4* c #46464242e2e2",
"5* c #56565454e8e8",
"6* c #65655353dbdb",
"7* c #79794141c2c2",
"8* c #72724343d6d6",
"9* c #77775f5fdbdb",
"0* c #65656262c4c4",
"q* c #71717171cece",
"w* c #7c7c7272c3c3",
"e* c #79797676d4d4",
"r* c #69696565e3e3",
"t* c #7a7a7777e0e0",
"y* c #8e8e2a2aa4a4",
"u* c #9a9a3030b1b1",
"i* c #aeae1c1cbfbf",
"p* c #a4a42d2db6b6",
"a* c #81810808dede",
"s* c #88880808dfdf",
"d* c #81810808e9e9",
"f* c #81810808f5f5",
"g* c #81810808f6f6",
"h* c #81810909ffff",
"j* c #88880808f8f8",
"k* c #88880808ffff",
"l* c #97970808e1e1",
"z* c #90900808ecec",
"x* c #97970808ebeb",
"c* c #9e9e0808e2e2",
"v* c #97970808f4f4",
"b* c #90900808fbfb",
"n* c #90900808ffff",
"m* c #97970808fcfc",
"M* c #97970909ffff",
"N* c #9e9e0808fcfc",
"B* c #9e9e0909ffff",
"V* c #91911616e2e2",
"C* c #a6a61c1ccdcd",
"Z* c #a5a50909e3e3",
"A* c #a5a50808eded",
"S* c #acac0909e4e4",
"D* c #a5a50808f8f8",
"F* c #a5a50808ffff",
"G* c #a5a50909ffff",
"H* c #acac0808ffff",
"J* c #acac0909ffff",
"K* c #b3b30909e6e6",
"L* c #b9b90909e7e7",
"P* c #bfbf0909e7e7",
"I* c #bfbf0909e8e8",
"U* c #b3b30808fcfc",
"Y* c #b3b30909ffff",
"T* c #b9b90909ffff",
"R* c #bfbf0808ffff",
"E* c #bfbf0909ffff",
"W* c #bfbf1e1ee9e9",
"Q* c #b6b62d2dc4c4",
"!* c #bdbd2d2dcbcb",
"~* c #b0b03939c1c1",
"^* c #bfbf3232d5d5",
"/* c #aaaa2222f6f6",
"(* c #bbbb3b3be6e6",
")* c #bcbc3333f6f6",
"_* c #89894d4d9e9e",
"`* c #868652529797",
"'* c #84845e5e9292",
"]* c #8e8e5d5d9b9b",
"[* c #91914646a0a0",
"{* c #99994a4ab0b0",
"}* c #90905656a5a5",
"|* c #93935959a5a5",
" = c #878762629494",
".= c #878762629999",
"X= c #81816c6c9090",
"o= c #888867679d9d",
"O= c #8f8f69699b9b",
"+= c #8f8f6c6c9c9c",
"@= c #8f8f6c6c9d9d",
"#= c #80807c7c8686",
"$= c #80807d7d8b8b",
"%= c #80807e7e8888",
"&= c #80807e7e8a8a",
"*= c #80807c7c8c8c",
"== c #80807d7d8c8c",
"-= c #81817d7d8d8d",
";= c #81817e7e8d8d",
":= c #82827c7c8e8e",
">= c #82827f7f8e8e",
",= c #82827f7f8f8f",
"<= c #818177779292",
"1= c #858570709595",
"2= c #848476769999",
"3= c #81817e7e9090",
"4= c #81817e7e9292",
"5= c #81817e7e9494",
"6= c #848478789292",
"7= c #87877b7b9393",
"8= c #85857f7f9191",
"9= c #80807d7d9898",
"0= c #878779799898",
"q= c #85857c7c9a9a",
"w= c #888872729797",
"e= c #8e8e72729f9f",
"r= c #8d8d74749d9d",
"t= c #8a8a7c7c9898",
"y= c #8c8c79799898",
"u= c #8f8f78789e9e",
"i= c #90906b6b9d9d",
"p= c #8e8e6161a1a1",
"a= c #8a8a6d6da2a2",
"s= c #82827f7faaaa",
"d= c #81817f7fafaf",
"f= c #86867b7bacac",
"g= c #94946565a2a2",
"h= c #9e9e6c6caeae",
"j= c #91917676a9a9",
"k= c #98987171abab",
"l= c #99997272afaf",
"z= c #99997a7aaaaa",
"x= c #9c9c7f7faaaa",
"c= c #a8a84545bcbc",
"v= c #a1a16d6dadad",
"b= c #a6a66666b3b3",
"n= c #acac6a6ab7b7",
"m= c #aaaa6c6cb9b9",
"M= c #a2a27474b5b5",
"N= c #a7a77979b9b9",
"B= c #b4b46d6dbfbf",
"V= c #95954242c0c0",
"C= c #83835f5fe5e5",
"Z= c #80807b7bc2c2",
"A= c #85857f7fc1c1",
"S= c #95956969c5c5",
"D= c #89897a7af1f1",
"F= c #a8a85757c1c1",
"G= c #b9b95454d3d3",
"H= c #bfbf5050dcdc",
"J= c #a4a44b4beeee",
"K= c #a9a94c4ce2e2",
"L= c #baba4f4ff8f8",
"P= c #a5a56d6dcaca",
"I= c #aeae6666c0c0",
"U= c #b2b26a6ac6c6",
"Y= c #b6b66b6bc7c7",
"T= c #b3b37c7cc3c3",
"R= c #b2b27e7ec8c8",
"E= c #b8b87575c3c3",
"W= c #a6a66f6feded",
"Q= c #aeae6363e1e1",
"!= c #bebe6262e9e9",
"~= c #bebe7a7ae7e7",
"^= c #c4c40909eaea",
"/= c #caca0909eaea",
"(= c #cece0909ebeb",
")= c #c4c40808f7f7",
"_= c #c4c40808fafa",
"`= c #c4c40808ffff",
"'= c #caca0808ffff",
"]= c #caca0909ffff",
"[= c #cece0909ffff",
"{= c #caca1010fdfd",
"}= c #d3d30909eded",
"|= c #d3d30808ffff",
" - c #d7d70808ffff",
".- c #d7d70909ffff",
"X- c #dbdb0a0af0f0",
"o- c #dede0a0af1f1",
"O- c #dede0a0af2f2",
"+- c #dbdb0808ffff",
"@- c #dede0909fcfc",
"#- c #dede0909ffff",
"$- c #d5d51616e8e8",
"%- c #dbdb1515eaea",
"&- c #dddd1919ebeb",
"*- c #dede1b1bffff",
"=- c #dfdf1a1affff",
"-- c #dddd1d1dffff",
";- c #dddd1f1fffff",
":- c #c4c42828dfdf",
">- c #c9c93232d8d8",
",- c #c2c22020f0f0",
"<- c #c6c63939e3e3",
"1- c #cece3030e8e8",
"2- c #dada2828e7e7",
"3- c #d8d82828e9e9",
"4- c #dbdb2525fdfd",
"5- c #dfdf2929ffff",
"6- c #dddd2c2cffff",
"7- c #dede2c2cffff",
"8- c #dada3030f9f9",
"9- c #dbdb3333ffff",
"0- c #dcdc3030ffff",
"q- c #dddd3030ffff",
"w- c #dbdb3e3ef6f6",
"e- c #dada3838ffff",
"r- c #dbdb3838ffff",
"t- c #dada3c3cffff",
"y- c #e1e10a0af3f3",
"u- c #e4e40a0af4f4",
"i- c #e1e10808ffff",
"p- c #e1e10909ffff",
"a- c #e4e40808ffff",
"s- c #e4e40909ffff",
"d- c #e6e60909ffff",
"f- c #e7e70b0bffff",
"g- c #e5e50d0dffff",
"h- c #e7e70c0cffff",
"j- c #e8e80b0bf7f7",
"k- c #e8e80e0ef6f6",
"l- c #ebeb0b0bf9f9",
"z- c #e8e80808ffff",
"x- c #e8e80909ffff",
"c- c #e9e90b0bffff",
"v- c #eaea0808ffff",
"b- c #eaea0909ffff",
"n- c #ebeb0808ffff",
"m- c #eaea0b0bffff",
"M- c #ebeb0a0affff",
"N- c #ebeb0b0bffff",
"B- c #ebeb0c0cfafa",
"V- c #e8e80c0cffff",
"C- c #ecec0808ffff",
"Z- c #ecec0909ffff",
"A- c #ecec0a0affff",
"S- c #ecec0b0bffff",
"D- c #eded0a0affff",
"F- c #eeee0909fdfd",
"G- c #efef0909fdfd",
"H- c #eeee0808ffff",
"J- c #eeee0909ffff",
"K- c #efef0808ffff",
"L- c #efef0909ffff",
"P- c #efef0a0affff",
"I- c #efef0b0bffff",
"U- c #ecec0c0cfcfc",
"Y- c #eded0f0fffff",
"T- c #efef0d0dffff",
"R- c #efef0f0fffff",
"E- c #e0e01515f4f4",
"W- c #e3e31717f6f6",
"Q- c #e7e71212f5f5",
"!- c #e6e61414f6f6",
"~- c #e2e21212fcfc",
"^- c #e1e11717ffff",
"/- c #e2e21515ffff",
"(- c #e3e31717ffff",
")- c #e6e61212ffff",
"_- c #e4e41717ffff",
"`- c #e1e11b1bffff",
"'- c #e5e51919f8f8",
"]- c #e7e71b1bffff",
"[- c #e4e41d1dfbfb",
"{- c #e4e41f1fffff",
"}- c #e5e51f1fffff",
"|- c #e6e61d1dffff",
" ; c #eaea1010ffff",
".; c #ebeb1111ffff",
"X; c #ebeb1212ffff",
"o; c #ebeb1717ffff",
"O; c #efef1111fefe",
"+; c #efef1313ffff",
"@; c #eded1515ffff",
"#; c #ecec1717ffff",
"$; c #eeee1414ffff",
"%; c #e8e81a1af8f8",
"&; c #eaea1b1bf9f9",
"*; c #e8e81b1bffff",
"=; c #e9e91a1affff",
"-; c #eaea1818ffff",
";; c #e8e81c1cfafa",
":; c #efef1f1ffdfd",
">; c #f0f00808ffff",
",; c #f0f00909ffff",
"<; c #f1f10808ffff",
"1; c #f1f10909ffff",
"2; c #f0f00a0affff",
"3; c #f0f00b0bffff",
"4; c #f0f00d0dffff",
"5; c #f1f10c0cffff",
"6; c #f1f10d0dffff",
"7; c #f0f00f0fffff",
"8; c #f1f10e0effff",
"9; c #f1f10f0fffff",
"0; c #f0f01111ffff",
"q; c #f1f11010ffff",
"w; c #f1f11111ffff",
"e; c #f0f01212ffff",
"r; c #e1e12323ffff",
"t; c #e3e32121ffff",
"y; c #e0e02626ffff",
"u; c #e8e82121fbfb",
"i; c #e8e82020fcfc",
"p; c #e8e82525f8f8",
"a; c #e9e92525f9f9",
"s; c #ebeb2727fbfb",
"d; c #efef2323fbfb",
"f; c #e9e92a2afafa",
"g; c #eaea2929fafa",
"h; c #eeee2929fbfb",
"j; c #e4e43131f6f6",
"k; c #e5e53737f7f7",
"l; c #e3e33c3cf7f7",
"z; c #eaea3636f7f7",
"x; c #e8e83a3af3f3",
"c; c #e9e93838f5f5",
"v; c #c2c24d4de2e2",
"b; c #c4c45959e4e4",
"n; c #cdcd5252eded",
"m; c #d8d84d4deeee",
"M; c #d4d44343f4f4",
"N; c #d7d74141fdfd",
"B; c #d7d74d4dfdfd",
"V; c #d9d94141ffff",
"C; c #dada4141ffff",
"Z; c #d9d94646ffff",
"A; c #d9d94b4bffff",
"S; c #d1d15656e5e5",
"D; c #d4d45959e3e3",
"F; c #dddd5959ebeb",
"G; c #c7c76565dada",
"H; c #c2c27676cece",
"J; c #c6c67d7ddcdc",
"K; c #cece6161eded",
"L; c #c0c07575e1e1",
"P; c #cece7575e6e6",
"I; c #d7d76767e9e9",
"U; c #dbdb6262e9e9",
"Y; c #dada6c6ce4e4",
"T; c #dcdc6363fbfb",
"R; c #d0d07474e3e3",
"E; c #d2d27b7be9e9",
"W; c #d7d77c7ceaea",
"Q; c #e1e14a4aefef",
"!; c #e1e14545f6f6",
"~; c #e1e14949f2f2",
"^; c #e3e34848f3f3",
"/; c #e8e84d4df4f4",
"(; c #eaea5757f4f4",
"); c #e5e56f6fefef",
"_; c #e1e17f7feaea",
"`; c #e4e47676f5f5",
"'; c #e0e07171fcfc",
"]; c #e6e67979fbfb",
"[; c #eaea7979f3f3",
"{; c #818180808484",
"}; c #818181818585",
"|; c #828281818585",
" : c #828281818787",
".: c #838382828484",
"X: c #828280808888",
"o: c #828281818888",
"O: c #838380808d8d",
"+: c #838380808f8f",
"@: c #848482828b8b",
"#: c #848481818d8d",
"$: c #848480808e8e",
"%: c #848481818e8e",
"&: c #858583838c8c",
"*: c #848484848888",
"=: c #878786868d8d",
"-: c #888887878b8b",
";: c #898989898c8c",
":: c #898988888e8e",
">: c #8b8b8a8a8d8d",
",: c #8c8c8c8c8e8e",
"<: c #8d8d8d8d8f8f",
"1: c #848481819090",
"2: c #848481819191",
"3: c #858582829191",
"4: c #858583839595",
"5: c #878784849292",
"6: c #878785859292",
"7: c #878784849696",
"8: c #8b8b81819696",
"9: c #888885859393",
"0: c #888886869393",
"q: c #8a8a87879090",
"w: c #8a8a87879393",
"e: c #8a8a87879595",
"r: c #8a8a87879898",
"t: c #8b8b8a8a9393",
"y: c #8b8b88889595",
"u: c #8b8b89899494",
"i: c #8b8b89899797",
"p: c #8c8c8b8b9090",
"a: c #8c8c8a8a9595",
"s: c #8c8c8b8b9494",
"d: c #8c8c8a8a9797",
"f: c #8e8e8b8b9696",
"g: c #8e8e8d8d9292",
"h: c #8f8f8d8d9393",
"j: c #8f8f8e8e9292",
"k: c #8e8e8d8d9595",
"l: c #8f8f8e8e9696",
"z: c #8c8c88889898",
"x: c #8f8f8c8c9999",
"c: c #939383839f9f",
"v: c #90908f8f9393",
"b: c #90908f8f9494",
"n: c #90908e8e9797",
"m: c #90908c8c9b9b",
"M: c #91918f8f9999",
"N: c #90908e8e9a9a",
"B: c #91918e8e9b9b",
"V: c #91918c8c9c9c",
"C: c #929290909595",
"Z: c #939393939696",
"A: c #949493939696",
"S: c #929290909d9d",
"D: c #939391919d9d",
"F: c #939391919f9f",
"G: c #949492929898",
"H: c #949492929b9b",
"J: c #959593939b9b",
"K: c #959591919f9f",
"L: c #959592929f9f",
"P: c #959593939f9f",
"I: c #959594949898",
"U: c #959595959a9a",
"Y: c #979795959a9a",
"T: c #959594949c9c",
"R: c #969694949f9f",
"E: c #979796969c9c",
"W: c #989896969e9e",
"Q: c #999997979f9f",
"!: c #9a9a99999c9c",
"~: c #9b9b9a9a9d9d",
"^: c #9d9d9c9c9f9f",
"/: c #86868484aeae",
"(: c #89898787a2a2",
"): c #89898484afaf",
"_: c #8c8c8989a3a3",
"`: c #8e8e8c8ca1a1",
"': c #95958282a0a0",
"]: c #95958585adad",
"[: c #90908e8ea1a1",
"{: c #92928f8fafaf",
"}: c #9d9d8585a8a8",
"|: c #92928686b3b3",
" > c #9e9e8a8ab2b2",
".> c #92929090a5a5",
"X> c #96969393a1a1",
"o> c #97979494a0a0",
"O> c #97979595a5a5",
"+> c #95959393aeae",
"@> c #99999393a2a2",
"#> c #98989595a1a1",
"$> c #98989696a2a2",
"%> c #99999797a2a2",
"&> c #9a9a9797a6a6",
"*> c #9b9b9999a0a0",
"=> c #9a9a9898a3a3",
"-> c #9a9a9898a4a4",
";> c #9b9b9999a6a6",
":> c #9d9d9b9ba2a2",
">> c #9d9d9b9ba5a5",
",> c #9c9c9a9aa6a6",
"<> c #9d9d9b9ba6a6",
"1> c #9d9d9b9ba7a7",
"2> c #9d9d9d9da0a0",
"3> c #9e9e9e9ea0a0",
"4> c #9f9f9e9ea1a1",
"5> c #9f9f9d9da4a4",
"6> c #9f9f9d9da5a5",
"7> c #9f9f9f9fa4a4",
"8> c #9f9f9e9ea7a7",
"9> c #9f9f9b9ba8a8",
"0> c #9f9f9c9ca8a8",
"q> c #9f9f9d9daaaa",
"w> c #a4a48282b4b4",
"e> c #a7a78f8fb4b4",
"r> c #a8a88181b8b8",
"t> c #aaaa8c8cbdbd",
"y> c #a5a59494afaf",
"u> c #a0a09f9fa2a2",
"i> c #a0a09e9ea7a7",
"p> c #a1a19f9fa7a7",
"a> c #a1a19f9fa8a8",
"s> c #a1a19f9fa9a9",
"d> c #a0a09e9eaaaa",
"f> c #a1a19e9eaaaa",
"g> c #a1a19f9faaaa",
"h> c #a0a09e9eaeae",
"j> c #a4a49b9bafaf",
"k> c #a2a29e9eb6b6",
"l> c #a4a49898b3b3",
"z> c #a5a59898b2b2",
"x> c #a7a79e9eb0b0",
"c> c #adad9a9ab9b9",
"v> c #b4b48f8fbebe",
"b> c #a0a0a0a0a3a3",
"n> c #a1a1a0a0a3a3",
"m> c #a1a1a0a0a6a6",
"M> c #a2a2a0a0a5a5",
"N> c #a2a2a1a1a4a4",
"B> c #a3a3a2a2a5a5",
"V> c #a3a3a3a3a4a4",
"C> c #a4a4a2a2a6a6",
"Z> c #a3a3a1a1acac",
"A> c #a2a2a0a0afaf",
"S> c #a4a4a3a3a9a9",
"D> c #a4a4a2a2abab",
"F> c #a5a5a3a3aeae",
"G> c #a7a7a5a5abab",
"H> c #a7a7a6a6aaaa",
"J> c #a7a7a7a7aaaa",
"K> c #a6a6a4a4aeae",
"L> c #a7a7a5a5afaf",
"P> c #a8a8a7a7acac",
"I> c #a8a8a6a6aeae",
"U> c Gray66",
"Y> c #a9a9a8a8acac",
"T> c #aaaaa8a8aeae",
"R> c #ababa9a9aeae",
"E> c #aaaaaaaaadad",
"W> c #ababaaaaadad",
"Q> c #acacababacac",
"!> c #acacababafaf",
"~> c #a6a6a3a3b6b6",
"^> c #a7a7a4a4b3b3",
"/> c #a7a7a6a6b3b3",
"(> c #a5a5a0a0bbbb",
")> c #a8a8a6a6b0b0",
"_> c #a9a9a7a7b0b0",
"`> c #a9a9a7a7b1b1",
"'> c #adada6a6b7b7",
"]> c #a9a9a7a7bbbb",
"[> c #acaca5a5bdbd",
"{> c #aaaaa8a8b1b1",
"}> c #aaaaa8a8b2b2",
"|> c #ababababb0b0",
" , c #acaca9a9b4b4",
"., c #acacaaaab4b4",
"X, c #adadababb4b4",
"o, c #aeaeadadb1b1",
"O, c #aeaeadadb3b3",
"+, c #aeaeaeaeb0b0",
"@, c #afafadadb5b5",
"#, c #aeaeacacb6b6",
"$, c #afafadadb6b6",
"%, c #afafaeaeb6b6",
"&, c #b1b1a5a5bbbb",
"*, c #b2b2a5a5bbbb",
"=, c #b4b4a3a3bcbc",
"-, c #b0b0afafb3b3",
";, c #b0b0afafb7b7",
":, c #b1b1afafb7b7",
">, c #b2b2a9a9baba",
",, c #b2b2aaaababa",
"<, c #b0b0aeaeb8b8",
"1, c #b1b1afafb8b8",
"2, c #b0b0afafbaba",
"3, c #b1b1afafbaba",
"4, c #b2b2adadbaba",
"5, c #b6b6a8a8bdbd",
"6, c #b6b6ababbebe",
"7, c #b6b6afafbebe",
"8, c #b1b1b0b0b3b3",
"9, c #b1b1b0b0b5b5",
"0, c #b1b1b1b1b5b5",
"q, c #b2b2b1b1b7b7",
"w, c #b3b3b2b2b6b6",
"e, c #b4b4b3b3b6b6",
"r, c #b2b2b0b0b8b8",
"t, c #b2b2b0b0b9b9",
"y, c #b3b3b1b1baba",
"u, c #b4b4b2b2b9b9",
"i, c #b5b5b3b3bbbb",
"p, c #b5b5b2b2bcbc",
"a, c #b5b5b3b3bebe",
"s, c #b6b6b5b5b8b8",
"d, c #b6b6b4b4bbbb",
"f, c #b5b5b4b4bcbc",
"g, c #b6b6b4b4bcbc",
"h, c #b6b6b4b4bfbf",
"j, c #b7b7b5b5bfbf",
"k, c #b9b9b7b7bbbb",
"l, c #b8b8b7b7bdbd",
"z, c #b8b8b6b6bebe",
"x, c #b9b9b8b8bcbc",
"c, c #b9b9b8b8bebe",
"v, c #b9b9b8b8bfbf",
"b, c #babab9b9bcbc",
"n, c #babab8b8bfbf",
"m, c #bbbbbbbbbebe",
"M, c #bcbcbbbbbcbc",
"N, c #bcbcbababfbf",
"B, c #bcbcbcbcbfbf",
"V, c #bdbdbdbdbfbf",
"C, c #86868484c5c5",
"Z, c #92928080cdcd",
"A, c #96968e8ecfcf",
"S, c #92928d8dd4d4",
"D, c #9f9f8e8ed6d6",
"F, c #85858383e9e9",
"G, c #86868585eded",
"H, c #8e8e8484f2f2",
"J, c #9a9a9595e2e2",
"K, c #aaaa9393d3d3",
"L, c #b3b38282c5c5",
"P, c #baba8a8ac5c5",
"I, c #bfbf8f8fe7e7",
"U, c #adada5a5c3c3",
"Y, c #acaca0a0caca",
"T, c #aeaeacacd5d5",
"R, c #adadaaaad9d9",
"E, c #acacababdddd",
"W, c #b1b1a9a9cbcb",
"Q, c #b8b8a8a8c0c0",
"!, c #bbbbaaaac2c2",
"~, c #bbbbababc2c2",
"^, c #bdbdadadc4c4",
"/, c #bfbfadadc7c7",
"(, c #bfbfababc8c8",
"), c #bfbfacaccaca",
"_, c #b7b7aeaed0d0",
"`, c #bdbdaaaad7d7",
"', c #b2b2b1b1c2c2",
"], c #b6b6b4b4c0c0",
"[, c #b8b8b6b6c0c0",
"{, c #babab6b6c0c0",
"}, c #b8b8b5b5c6c6",
"|, c #babab8b8c0c0",
" < c #babab9b9c1c1",
".< c #bbbbb9b9c7c7",
"X< c #bcbcbbbbc1c1",
"o< c #bdbdbbbbc1c1",
"O< c #bcbcbabac2c2",
"+< c #bcbcbbbbc2c2",
"@< c #bcbcbbbbc3c3",
"#< c #bfbfb8b8c7c7",
"$< c #bdbdbcbcc0c0",
"%< c #bdbdbcbcc3c3",
"&< c #bebebdbdc1c1",
"*< c #bebebcbcc3c3",
"=< c #bebebcbcc5c5",
"-< c #bfbfbcbcc5c5",
";< c #bfbfbdbdc5c5",
":< c #b6b6b4b4d0d0",
">< c #b9b9b2b2d2d2",
",< c #bcbcbbbbd7d7",
"<< c #bdbdbcbcd0d0",
"1< c #bebebcbcd1d1",
"2< c #b9b9b8b8e4e4",
"3< c #cbcb8d8ddbdb",
"4< c #c0c09a9acece",
"5< c #c7c79696d0d0",
"6< c #c5c59d9dd3d3",
"7< c #cbcb9797d8d8",
"8< c #c9c99e9ed8d8",
"9< c #d5d58787dddd",
"0< c #d0d08b8bd8d8",
"q< c #d0d09191dada",
"w< c #d4d49797dddd",
"e< c #d4d49d9ddbdb",
"r< c #d7d79e9edfdf",
"t< c #dcdc8282f3f3",
"y< c #dada9292e5e5",
"u< c #dada9595e1e1",
"i< c #d8d89696e6e6",
"p< c #dbdb9898e2e2",
"a< c #c6c6a0a0cece",
"s< c #c5c5a6a6cfcf",
"d< c #c3c3ababcaca",
"f< c #c8c8a2a2cfcf",
"g< c #c4c4a5a5d0d0",
"h< c #c7c7a5a5d2d2",
"j< c #c5c5a4a4dfdf",
"k< c #c6c6afafd3d3",
"l< c #cdcda5a5d5d5",
"z< c #cfcfa3a3d8d8",
"x< c #cccca3a3dfdf",
"c< c #c9c9aaaad3d3",
"v< c #cbcbaaaad2d2",
"b< c #c9c9a8a8d4d4",
"n< c #c2c2b1b1c8c8",
"m< c #c2c2b2b2caca",
"M< c #c6c6b1b1cdcd",
"N< c #c5c5b6b6cccc",
"B< c #c1c1bdbdc7c7",
"V< c #c0c0bfbfc5c5",
"C< c #c0c0bebec6c6",
"Z< c #c0c0bebec7c7",
"A< c #c0c0bfbfc6c6",
"S< c #c1c1bfbfc7c7",
"D< c #c0c0bcbccbcb",
"F< c #c1c1bfbfcbcb",
"G< c #c1c1bcbccfcf",
"H< c #c4c4babacbcb",
"J< c #c5c5b8b8cccc",
"K< c #c5c5bfbfcccc",
"L< c #c7c7b4b4d1d1",
"P< c #c4c4babad7d7",
"I< c #c7c7bdbdd1d1",
"U< c #c6c6bebed7d7",
"Y< c #c2c2bebed9d9",
"T< c #c9c9b6b6d1d1",
"R< c #ceceb2b2d4d4",
"E< c #ccccb7b7d3d3",
"W< c #ccccb5b5d4d4",
"Q< c #d4d4ababdada",
"!< c #d4d4adaddada",
"~< c #d6d6adaddcdc",
"^< c #d0d0b5b5d6d6",
"/< c #d4d4b2b2dfdf",
"(< c #d0d0b9b9d5d5",
")< c #d0d0bdbdd6d6",
"_< c #d3d3bcbcd9d9",
"`< c #d4d4b9b9d9d9",
"'< c #d8d8bdbddddd",
"]< c #dadabebedfdf",
"[< c #c0c0a0a0e4e4",
"{< c #c2c2ababe4e4",
"}< c #cbcbababebeb",
"|< c #c8c8b9b9e4e4",
" 1 c #cdcdb8b8e6e6",
".1 c #d6d6a9a9e0e0",
"X1 c #dfdfa5a5e5e5",
"o1 c #d6d6b3b3e0e0",
"O1 c #dadab6b6e3e3",
"+1 c #ddddb6b6e2e2",
"@1 c #dedebabae6e6",
"#1 c #dedebebeebeb",
"$1 c #e2e28686f4f4",
"%1 c #e4e48484f1f1",
"&1 c #e4e48f8ff9f9",
"*1 c #e0e09797e7e7",
"=1 c #e4e49494ebeb",
"-1 c #e3e3a2a2eaea",
";1 c #e4e4a7a7ebeb",
":1 c #e0e0ababe6e6",
">1 c #e0e0afafe5e5",
",1 c #e3e3acaceded",
"<1 c #e7e7aaaaeeee",
"11 c #eaeaa8a8f0f0",
"21 c #e4e4b1b1ebeb",
"31 c #e6e6b2b2ebeb",
"41 c #e1e1bcbce6e6",
"51 c #e2e2babae9e9",
"61 c #e3e3bebee8e8",
"71 c #e8e8b4b4f0f0",
"81 c #c1c1c0c0c3c3",
"91 c #c1c1c0c0c7c7",
"01 c #c2c2c1c1c5c5",
"q1 c #c2c2c0c0c6c6",
"w1 c #c2c2c2c2c5c5",
"e1 c #c3c3c2c2c5c5",
"r1 c #c4c4c3c3c7c7",
"t1 c #c5c5c4c4c6c6",
"y1 c #c2c2c1c1cbcb",
"u1 c #c3c3c2c2c8c8",
"i1 c #c3c3c2c2c9c9",
"p1 c #c3c3c1c1cfcf",
"a1 c #c4c4c2c2c9c9",
"s1 c #c4c4c3c3caca",
"d1 c #c5c5c2c2cbcb",
"f1 c #c5c5c3c3cdcd",
"g1 c #c6c6c2c2cdcd",
"h1 c #c5c5c4c4c9c9",
"j1 c #c5c5c4c4cbcb",
"k1 c #c6c6c5c5cbcb",
"l1 c #c7c7c5c5cbcb",
"z1 c #c7c7c5c5cdcd",
"x1 c #c8c8c0c0cece",
"c1 c #c8c8c1c1cece",
"v1 c #c8c8c6c6cdcd",
"b1 c #c8c8c7c7cccc",
"n1 c #c8c8c7c7cfcf",
"m1 c #c9c9c8c8cccc",
"M1 c #c9c9c8c8cdcd",
"N1 c #c9c9c8c8cece",
"B1 c #cacac9c9cdcd",
"V1 c #cbcbc9c9cdcd",
"C1 c #cacac8c8cfcf",
"Z1 c #cacac9c9cfcf",
"A1 c #cccccbcbcfcf",
"S1 c #cccccccccdcd",
"D1 c #cdcdcccccfcf",
"F1 c #c3c3c1c1d1d1",
"G1 c #c3c3c2c2dede",
"H1 c #cbcbc1c1d0d0",
"J1 c #cacac2c2d0d0",
"K1 c #cacac3c3d0d0",
"L1 c #c8c8c7c7d6d6",
"P1 c #cdcdc4c4d2d2",
"I1 c #c8c8c1c1d8d8",
"U1 c #cbcbc2c2dddd",
"Y1 c #cbcbcacad2d2",
"T1 c #cccccacad1d1",
"R1 c #cccccbcbd1d1",
"E1 c #cdcdcbcbd0d0",
"W1 c #cccccacad3d3",
"Q1 c #cdcdccccd2d2",
"!1 c #cececdcdd1d1",
"~1 c #cececcccd3d3",
"^1 c #cfcfcdcdd3d3",
"/1 c #cfcfceced4d4",
"(1 c #cfcfceced7d7",
")1 c #cfcfccccd9d9",
"_1 c #d0d0c2c2d5d5",
"`1 c #d3d3c2c2d7d7",
"'1 c #d2d2c4c4d7d7",
"]1 c #d2d2c6c6d6d6",
"[1 c #d4d4c5c5d9d9",
"{1 c #d4d4c6c6d9d9",
"}1 c #d0d0cfcfd2d2",
"|1 c #d1d1cdcdd5d5",
" 2 c #d1d1cdcdd7d7",
".2 c #d0d0cfcfd4d4",
"X2 c #d0d0cfcfd5d5",
"o2 c #d1d1cfcfd5d5",
"O2 c #d3d3cdcdd7d7",
"+2 c #d3d3cbcbd8d8",
"@2 c #d5d5cbcbdada",
"#2 c #d4d4ccccd9d9",
"$2 c #d9d9c7c7dddd",
"%2 c #dbdbcbcbdfdf",
"&2 c #d8d8ccccdcdc",
"*2 c #d9d9ccccdcdc",
"=2 c #dbdbccccdfdf",
"-2 c #dadacfcfdede",
";2 c #d0d0d0d0d1d1",
":2 c #d1d1d0d0d5d5",
">2 c #d2d2d1d1d5d5",
",2 c #d2d2d1d1d6d6",
"<2 c #d3d3d0d0d7d7",
"12 c #d3d3d2d2d4d4",
"22 c #d3d3d2d2d7d7",
"32 c #d4d4d3d3d7d7",
"42 c #d5d5d4d4d6d6",
"52 c #d5d5d4d4d7d7",
"62 c #d4d4d3d3d8d8",
"72 c #d5d5d4d4d9d9",
"82 c #d6d6d5d5d9d9",
"92 c #d6d6d5d5dada",
"02 c #d7d7d6d6dada",
"q2 c #d8d8d2d2dbdb",
"w2 c #dadad1d1dede",
"e2 c #d8d8d6d6dbdb",
"r2 c #d8d8d7d7dbdb",
"t2 c #dbdbd6d6dfdf",
"y2 c #d9d9d8d8dcdc",
"u2 c #d9d9d8d8dddd",
"i2 c #dadad9d9dddd",
"p2 c #dbdbd9d9dcdc",
"a2 c #dbdbdadadede",
"s2 c #dbdbdadadfdf",
"d2 c #dcdcd8d8dfdf",
"f2 c #dcdcdadadfdf",
"g2 c #dcdcdbdbdfdf",
"h2 c #dcdcdcdcdede",
"j2 c #c7c7c5c5e9e9",
"k2 c #cacac8c8e7e7",
"l2 c #cacac4c4f2f2",
"z2 c #d6d6cbcbecec",
"x2 c #dadac0c0e3e3",
"c2 c #ddddc2c2e2e2",
"v2 c #dcdcc6c6e5e5",
"b2 c #dcdcc9c9e1e1",
"n2 c #dfdfc9c9e5e5",
"m2 c #dedecdcde4e4",
"M2 c #d5d5d3d3e3e3",
"N2 c #dadad2d2e0e0",
"B2 c #dfdfd7d7e2e2",
"V2 c #dfdfd7d7e3e3",
"C2 c #dddddbdbe1e1",
"Z2 c #dddddcdce0e0",
"A2 c #dddddcdce1e1",
"S2 c #dededddde1e1",
"D2 c #dededddde2e2",
"F2 c #dfdfdddde2e2",
"G2 c #dfdfdedee2e2",
"H2 c #dfdfdedeefef",
"J2 c #e4e4c4c4eded",
"K2 c #e6e6c7c7eded",
"L2 c #e0e0cfcfe6e6",
"P2 c #e1e1cfcfe6e6",
"I2 c #e3e3cbcbe8e8",
"U2 c #e3e3cecee8e8",
"Y2 c #e4e4c9c9ebeb",
"T2 c #e7e7cbcbeeee",
"R2 c #efefc5c5f2f2",
"E2 c #eeeecbcbf2f2",
"W2 c #efefcdcdf4f4",
"Q2 c #e1e1d0d0e5e5",
"!2 c #e3e3d2d2e7e7",
"~2 c #e3e3d3d3e7e7",
"^2 c #e2e2d1d1e8e8",
"/2 c #e3e3d0d0e8e8",
"(2 c #e7e7d2d2ebeb",
")2 c #e5e5d6d6e9e9",
"_2 c #e1e1dcdce4e4",
"`2 c #e1e1dddde4e4",
"'2 c #e4e4dfdfe8e8",
"]2 c #eaeadcdceded",
"[2 c #e6e6d1d1f0f0",
"{2 c #ececd1d1f0f0",
"}2 c #f1f1cecef9f9",
"|2 c #f4f4d2d2f7f7",
" 3 c #f4f4dedef6f6",
".3 c #e2e2e2e2e3e3",
"X3 c #e1e1e0e0e4e4",
"o3 c #e1e1e0e0e5e5",
"O3 c #e1e1e1e1e7e7",
"+3 c #e2e2e1e1e6e6",
"@3 c #e2e2e2e2e5e5",
"#3 c #e3e3e2e2e6e6",
"$3 c #e4e4e1e1e8e8",
"%3 c #e4e4e3e3e8e8",
"&3 c #e5e5e2e2e8e8",
"*3 c #e5e5e3e3e8e8",
"=3 c #e5e5e5e5e8e8",
"-3 c #e8e8e3e3eaea",
";3 c #e8e8e7e7eaea",
":3 c Gray92",
">3 c #e9e9e8e8ecec",
",3 c #eaeae9e9ecec",
"<3 c #ebebebebeeee",
"13 c #ececebebeded",
"23 c #ececececeeee",
"33 c #edede3e3f0f0",
"43 c #ececebebf1f1",
"53 c #efefeeeef0f0",
"63 c #f3f3e9e9f6f6",
"73 c #f0f0efeff1f1",
"83 c #f5f5e9e9f8f8",
"93 c #f1f1f1f1f1f1",
"03 c #f1f1f0f0f2f2",
"q3 c #f3f3f3f3f4f4",
"w3 c #f3f3f3f3f5f5",
"e3 c #f5f5f4f4f7f7",
"r3 c #f5f5f5f5f6f6",
"t3 c #f7f7f6f6f7f7",
"y3 c #f8f8f7f7f8f8",
"u3 c Gray98",
"i3 c Gray99",
"p3 c Gray100",
/* pixels */
"p3p3p3u353X3:2i1z,.,Z>0>0>g>F>$,0>D:d:e:d:D:,>}>z,S<j1^1i2,3p323g2:2R1;<.,0>B:9:+:+:1:d:->$,Z>->P:P:#>g>}>z,v1r2;3r3i3p3",
"i3p3i3r3,3g2^1S<y,}>Z>0>0>g>)>.,,>B:e:e:d:D:0>}>|,S<j1^1i2,3p323g222R1@<}>,>x:3:+:+:3:x:,>$,Z>->#>P:->Z>$,@<R1g253r3i3y3",
"r3u3r353#3r2Z1@<1,)>g>0>0>g>)>}>->x:e:e:d:D:0>.,@<S<j1R1i2,3u323g222v1z,)>->x:3:+:+:3:x:0>$,Z>,>#>#>,>F>1,S<:2#353r3y3q3",
"53q303;3G222j1|,$,F>g>0>0>g>}>)>#>x:9:9:d:P:g>$,;<S<j1R1r2,3r353G222j1f,F>#>d:3:+:+:3:B:0>$,Z>,>#>->0>)>f,j172;353r30323",
";323,3#3r2R1S<f,.,Z>0>,>0>Z>}>F>P:d:9:9:d:P:g>1,S<S<j1R1r2;303,3G2:2S<y,Z>P:d:1:+:+:9:B:g>$,Z>,>->,>g>.,|,Z1i2,353r3,3=3",
"X3=3#3g222v1@<y,)>g>,>,>0>Z>}>Z>P:e:9:9:d:P:Z>y,S<S<j1R1r2;323=3i2R1;<$,g>D:e:1:+:+:9:D:Z>$,Z>0>,>0>F>$,@<^1X3,35353#3G2",
"i2G2g272R1i1z,$,F>0>,>->,>Z>}>g>D:e:3:9:d:#>Z>y,S<S<j1R1r2;3;3X3r2Z1@<.,0>D:e:1:+:1:e:P:F>$,F>0>0>g>)>y,S<22=3,353;3g272",
":27272^1v1;<y,}>Z>,>->->,>Z>}>g>B:9:3:9:x:#>F>f,S<S<j1R172=3#3G222j1z,}>,>B:9:1:+:1:e:P:)>$,F>g>g>Z>.,z,j1r2#3;353X372^1",
"Z1^1^1v1S<z,$,F>0>->#>#>,>g>}>0>B:9:3:9:x:->)>z,S<S<j1Z172=3X3i2^1i1f,)>->x:9:1:+:1:d:#>)>$,)>Z>Z>F>$,@<R1G2#3;3,3i2R1v1",
"i1v1v1i1|,y,}>Z>,>#>P:#>->g>}>,>x:9:3:9:x:->)>|,S<S<i1Z172#3g272R1;<1,F>#>x:3:+:+:3:d:->}>1,)>Z>F>}>y,S<:2X3#3;3#322j1S<",
"|,;<;<@<f,.,F>0>->P:P:P:->g>}>->x:3:3:9:x:->}>@<S<S<i1Z122X3r2:2v1@<$,Z>P:d:3:+:+:3:x:,>.,1,}>F>)>.,z,j172X3#3;3g2Z1;<z,",
"y,z,z,f,$,)>g>->P:D:D:P:->g>}>->d:3:3:9:B:,>.,@<S<S<i1Z122g272^1i1z,.,0>P:d:3:+:1:9:B:,>$,y,.,)>}>1,@<Z1g2X3#3;372i1f,1,",
"}>1,1,.,)>g>,>P:D:B:B:D:#>0>)>#>d:3:1:9:B:,>.,;<S<S<i1Z122i2:2Z1S<f,}>,>D:e:3:1:1:9:B:0>1,y,.,}>$,f,S<^1G2X3#3X3R1|,$,)>",
"Z>)>}>F>g>,>#>D:x:d:x:B:#>0>F>#>e:3:1:9:B:0>$,S<S<S<i1v12272^1v1;<y,F>,>B:e:1:1:1:e:D:g>y,f,$,$,1,z,j172G2X3#3i2j1y,F>g>",
"->g>g>0>,>#>B:x:d:e:d:B:P:0>Z>P:e:3:1:e:D:0>$,i1S<S<i1v1:222Z1i1|,$,Z>->B:9:1:1:3:d:P:Z>f,f,1,1,y,@<Z1i2G2G2#322@<.,0>#>",
"D:#>->#>P:B:d:e:9:9:e:x:P:,>Z>D:e:1:3:e:D:g>1,S<S<S<i1v1:2:2v1S<z,.,g>#>x:9:1:1:3:d:#>F>z,z,y,y,z,S<^1X3G2G2#3Z1f,Z>P:x:",
"e:B:D:B:x:d:9:3:3:3:9:d:D:,>g>D:9:1:3:e:D:g>y,S<S<S<S<v1:2R1j1@<y,}>0>P:d:9:1:1:9:x:->)>|,|,f,f,@<j122G2G2G2i2i1$,->x:9:",
"1:9:e:e:9:3:1:+:+:1:3:e:D:,>0>D:9:1:3:e:P:Z>y,S<S<;<S<v1:2Z1S<|,1,)>,>D:d:3:1:3:9:B:,>}>;<@<z,|,;<Z1i2G2g2G222@<F>D:3:>=",
"==+:1:1:+:+:>=;=>=>=1:e:B:->0>B:9:1:3:d:P:Z>f,S<;<;<S<j1^1v1;<z,$,Z>->B:e:3:1:3:e:B:0>.,S<;<|,@<i1^1G2G2g2G2R1y,,>e:;=$*",
"}&$*;=;=;=========;=+:9:x:->,>B:9:1:3:d:#>F>z,S<;<;<S<j1^1j1@<f,.,g>#>B:e:3:1:3:e:D:g>$,i1;<@<S<v122X3g2g2g2i1.,P:1:o*R&",
"U&]&}&o*o*o*o*o*$*==>=3:x:#>,>x:9:1:3:d:#>)>z,S<;<;<S<j1^1i1|,1,)>0>P:x:9:3:3:9:d:P:Z>y,j1S<S<i1R1i2X3g2g272@<Z>d:==Y&J&",
"S&U&Y&R&R&R&]&]&}&$*;=1:d:P:->x:9:3:9:x:->)>|,S<;<;<S<j1^1S<z,$,F>,>P:d:9:3:3:9:x:#>F>f,v1i1i1v1:2G2G2g2g2^1y,,>3:}&F&c&",
"i+C&F&J&U&U&Y&Y&]&o*==+:e:P:->x:9:3:9:x:->}>|,S<;<;<S<j1R1;<f,.,Z>->D:d:9:3:3:e:B:->)>z,Z1j1j1R172#3G2g2g2j1.,D:;=U&a+u+",
"6+i+c&C&S&F&F&U&Y&]&$*+:e:D:#>x:9:3:9:B:,>}>@<S<;<;<S<j1Z1@<y,}>g>->B:e:9:3:3:e:B:,>}>|,R1Z1Z1^1i2#3G2i2r2;<F>d:o*C&9+1+",
"#+4+u+i+a+c&C&F&U&R&o*>=9:D:#>d:9:3:e:B:,>.,;<;<;<;<S<j1Z1|,1,)>0>#>x:e:3:3:9:d:D:0>.,@<R1R1R122G2#3g2i2:2z,,>1:Y&i+*+++",
"(O#+1+6+u+i+c&C&F&Y&}&;=3:B:P:d:9:3:e:B:0>.,;<;<;<;<S<j1v1z,$,F>,>P:x:e:3:3:9:d:P:g>$,S<^1^1:2r2#3X3g2i2Z1$,P:==F&4+'OEO",
"jO(O++*+4+9+i+c&S&U&]&==3:x:P:d:9:9:e:D:0>$,S<;<;<;<S<j1j1z,.,Z>,>D:d:9:3:3:9:x:#>Z>1,i1:2:222g2;3G2i2i2i1)>d:}&a+#+jOtO",
"<OjO!O++*+4+9+i+C&J&]&==1:x:D:d:9:9:d:D:g>$,;<;<;<;<S<j1j1f,}>g>->B:d:9:3:3:e:B:->F>f,j12222r2X3=3G2i272|,0>3:U&9+!O3O>O",
"oO3OgO!O'O*+4+u+c&F&R&$*+:d:D:d:9:9:d:P:g>1,;<;<;<;<S<j1i1y,}>g>#>B:e:9:3:3:e:B:,>)>z,Z172r2i2=3=3g2i2^1y,#>;=S&*+gO-O}o",
"'o-O3OgO!O'O*+6+i+S&Y&o*+:d:D:d:9:9:x:P:Z>y,;<;<;<;<S<j1i1y,)>0>P:x:e:3:3:9:d:D:0>}>|,R1r2i2G2,3#3g2r2v1.,B:o*i+'O<O'o~o",
"!o'o-O3OjO!O++4+u+C&U&}&>=e:B:d:9:e:x:#>Z>y,;<;<;<;<S<j1S<y,F>,>P:x:9:3:3:9:d:P:g>.,@<^1g2g2#323X3i2r2S<F>9:Y&6+jO.O!oJo",
"Go~o}o-O3OjO'O*+9+c&J&}&;=9:B:d:9:e:B:->F>f,@<@<;<;<S<j1S<1,F>,>D:d:9:3:3:9:x:#>Z>1,S<22V2L2K271;1X1P<[,,>+:F&*+3O(oGoBo",
"qoJo~o.O>OgO!O#+6+a+F&]&;=9:B:e:e:d:B:->)>f,@<@<;<;<S<j1S<1,Z>->D:d:9:3:3:e:B:->x>5,N<o1t<e-6-{-$;O-K+1>P:$*a+(O-OPoqo4o",
"2oBoPo(ooO3OjO'O4+i+F&R&==3:x:e:e:d:D:,>)>z,@<@<;<;<S<j1S<1,Z>->B:e:8:u=h=b=n=B=U=P=G;^=/=T-#;*;8;_$X `&x:]&9+jO'oAo2o,o",
"*o4oAo!o}o>OgO(O1+u+S&R&$*1:x:d:e:d:D:,>}>z,@<@<;<;<S<j1;<$,Z>#>V:z=H=6-t;$;P*K+K.5>X<N,E>I.`+R$W$}   g+3:U&1+3O!o9o*o+o",
"Oo<oqoJo(ooOtO!O*+9+C&Y&$*1:d:d:e:x:P:0>}>|,@<@<;<;<i1j1;<$,Z>@>N=Z;C;t-t;S*    l: <R1G2,3z2a*c*=X    x+>=C&'OoOGo,oOoEX",
"EX%o2oAo!o.O<OEO#+6+c&U&o*+:d:d:d:x:P:0>.,z,|,@<;<S<i1v1;<$,f>r>Z;A;t;B-l*U#  *OX,;<:2#323W2$;!$    ^.a:$*i+EO'oqo%oYXCX",
"CXWX,o9oJo'o>OjO++6+c&U&o*>=e:d:d:B:#>g>.,z,|,@<;<S<i1v1-<*,L,A;V;|-I*x%h%r$i  X]>S<22=333];O-    *:a>x:]&6+tO!o2oWXVXNX",
"NXYX%o2oAo~o-OgO'O4+a+J&}&>=9:d:d:B:#>Z>$,z,|,@<;<S<i1x16<M;6-$;T-I*l%h%h%f%A#8X2*g<$2T2&1=;f no-,O<Z>3:J&*+>OGo*oUXlXkX",
"kXCXOo<oBo!o.OtO(O1+i+J&]&;=9:d:x:D:->Z>1,f,|,@<;<B<L<E;}-U#& N '+_$f%h%h%h%h%/$T$}=$;y;5-U-5*T:/>],,>>=C&(O}oqoOoNXjXdX",
"dXNXEX*o9oPo}o3O!O1+i+F&]&;=3:d:x:D:,>F>1,f,|,@<#<8<e-j-& jos:h+4X2XI#r$J$f%h%k%g%S*+;*;a*1.B f C:3,P:$*i+jO~o2oYXkXaXyX",
"aXkXUX+o4oGo'o<O!O*+u+S&R&==1:d:B:P:,>F>1,f,{,),P;6-I#  h:_>g>[:uoq # r A 5.2X1.n #           Z:V<.,x:]&6+3OJo*oVXdXtXrX",
"tXdXVXWX<oAo(o>OEO#+u+S&R&$*1:d:B:P:0>)>$,7,4<Z;-;r ~.|>;<1,g>P:r::+M.                 oU>e1m1:2S<F>9:U&*+-OBoOolXyXeXwX",
"eXsXzXEX,oBo~o-OjO#+9+S&Y&$*+:e:B:#>0>)>&,J;V;X-  poc,R1i11,Z>P:x:e:O:P&d+r+z+'&b:-,D193y3=3i2:2@<0>+:S&'O}o4oYXjXrX0X0X",
"qXyXkXUX*oqo!o-OjO#+9+C&Y&o*>=9:B:#>9>c>K;V;h$  l+%<v1R1i11,Z>#>x:e:e:d:D:,>)>z,v1i223i3q3#3r2^1f,->==a+EO~o,oVXaXqX!.!.",
"9XrXjXCX+o9o!ooOgO++9+C&U&o*>=3:x:L:e>B;Z;4X   :%<j1Z1^1i1y,Z>#>x:e:e:x:P:0>}>|,Z1g253p303X372Z1$,D:}&9+tOJo%ozXtX9XW.W.",
"Q.wXsXVXOo4oPo.OgO++6+c&U&}&;=3:z:w>A;Z;S+  v+v,i1v1Z1^1j1y,F>#>B:d:d:x:P:g>.,@<^1X3q3p323G2:2j1}>d:Y&1+>OBoWXjXwXQ.Y.Y.",
"W.qXaXzXWX2oJo.OtO'O6+c&U&}&==8=M=A;Z;h$  ior,;<i1v1R1:2j1f,F>#>B:d:d:B:#>Z>1,S<:2#3r3i3,3i2^1;<Z>3:J&++.O4oUXsX0XR.x.x.",
"Y.9XyXlXEX2oJo.OtO'O6+c&J&]&*=k=Z;Z;<$  B.D>z,;<i1v1R1:2v1f,F>->B:x:x:D:->F>y,i172;3u3y3=3r2R1|,0>>=C&!O(o,oNXtX!.U.l.z.",
"U.!.rXkXEX<oGo}otO'O6+c&J&!&e=V;V;P*    k:1,z,;<j1Z1^122Z1z,)>->D:x:x:D:,>)>f,j1r2,3p3q3#372Z1f,#>==i+gOPo%olXeXW.z.k.k.",
"z.Q.eXjXYX,oGo}otO'O4+a+J&1=N;Z;=;X   q+K>1,z,;<j1Z1^122Z1|,}>,>D:B:B:P:0>}>z,Z1g253i303G2:2v1$,D:}&6+<OAoWXdX0XY.k.f.j.",
"l.W.wXjXUX,oGo}otO'O4+a+B&v;V;7-K+  n.R:)>1,z,;<j1R1:272R1|,}>,>P:B:D:#>g>.,@<R1G2q3u323g2^1i1}>d:Y&*+oO9oUXaX!.x.f.d.f.",
"k.R.qXdXUX,oAo}o3O'O4+n&F=t-9-(%    r+,>F>$,z,S<v1R122r2^1@<.,0>P:D:D:->Z>$,;<:2#3r3y3,3r2R1;<F>3:J&'O}o2oVXrXW.l.d.p.a.",
"j.Y.qXsXCX*oAo}o3O'O4+.=0-t-8;(   g.u:,>F>$,z,S<v1^122r2:2;<$,g>#>D:P:,>F>y,S<22=3u3r3=372v1|,0>+:C&!O~o*olXwXY.j.p.i.p.",
"f.U.0XsXCX*oAo}otO'Oj&<-r-]-Q$+   AOB:->F>$,z,S<Z1^172i2:2S<$,g>->P:#>0>)>f,j1r2,3y3q3X3:2j1f,->==i+gOJoOojX0Xx.d.i.y.i.",
"d.x.9XaXCX*oAo}otO]O}*6-0-y-'#    H&B:->F>$,|,S<Z1:2r2g222i11,Z>->#>->g>}>z,v1i223r303G2^1i11,P:o*9+<OAoEXaX!.l.a.y.r.i.",
"d.x.9XaXVX*oAo}otOi&t;6-0;^%K+  H.==x:->Z>$,|,i1R122r2g272j1y,F>,>->,>Z>.,|,R1G203q323i2Z1;<.,x:]&1+-O9oCXtXW.j.i.e.e.y.",
"a.z.9XaXVX*oAo}otO`*}-r;/=T$J   xo+:x:#>Z>$,|,i1R122i2G2r2v1f,F>0>,>0>F>$,;<^1X3r303;3r2v1@<)>e:U&#+}o2oNXeXY.f.y.w.w.r.",
"a.z.!.aXVX*oAo}ocO^*{-+;(%/$i   ZO1:d:#>Z>$,|,j1^172g2X3i2Z1z,)>g>,>g>)>y,S<:2=3q353=322i1|,Z>3:F&(O(o*olXqXx.a.e.q.q.r.",
"p.z.!.aXVX*oGo.Ot&#;{-u-k%9$r   O++:d:#>Z>$,|,j1^1r2g2X3g2R1|,}>Z>0>Z>}>f,i172;30323X3^1S<f,0>+:c&EOPo+odX9Xl.p.w.0.q.e.",
"p.l.!.aXCX*oGo.Or&$;|-S*h%w$i   %++:e:#>Z>$,@<j1:2r2G2#3G2^1@<.,Z>g>F>.,z,v1r22353,3g2R1@<y,->==i+tOGoEXaXQ.j.y.q.9.0.e.",
"p.l.!.aXCX,oGo O[*+;e;(%h%'$N   o+>=e:P:Z>$,@<v1:2i2X3=3X3:2;<$,F>Z>)>$,|,Z1g25323;3r2v1|,$,P:o*9+<OqoUXtXR.f.r.0.9.0.w.",
"p.l.!.aXCX,oJo#O!*e;B-k%h%!$;X  wO>=e:P:Z>1,@<v122g2#3;3#322S<1,)>F>}>1,;<^1G223,3=372i1f,.,B:]&1+oO4oVXeXU.a.w.9.8.9.w.",
"p.l.!.aXUX<oPoaO&-9;X-k%h%h%]#& xX%*e:P:Z>1,@<Z172g2=3,3=372i1y,}>)>.,f,S<:2#323;3#3:2S<y,)>d:Y&#+}o<ozXqXz.p.q.8.8.9.w.",
"p.z.9XsXUX<oPosO%-T-(=k%h%h%D$J 2 p+9:P:Z>1,;<Z172G2=3,3,3r2j1f,.,.,$,z,i122;3,3;3X3R1@<$,Z>9:J&'O(o*okX9Xk.y.0.7.7.9.w.",
"p.z.9XsXYX2o!oiOC*/=K*h%h%h%h%h$K }.9=P:Z>1,;<R1r2X3;32323i2v1z,$,$,1,|,v1r2;3;3=3g2Z1|,.,0>1:S&!O!oOosXQ.j.r.9.7.7.9.w.",
"a.z.9XdXYX4o~o,O5&f%g%h%h%h%h%g%Y#1X~+_:Z>1,S<R1r2#3,35353G2Z1|,y,1,y,@<Z1i2;3=3#3r2j1f,)>,>>=c&jOJoEXyXR.d.e.8.6.6.9.e.",
"a.x.0XdXEX9o~o3O7&<$]#K$g%h%h%h%!$:$'#e%|:4,S<^1i2=3230303X3R1@<f,y,z,S<^1G2=3#3`2#2Z<1,F>#>==i+3OBoUXtXY.a.q.7.6.6.9.e.",
"d.x.qXjXWX9o(o3OzOR+1XI+w$f%h%h%h%k%R$'$~%G=5<(<t2=353q3q3#3:2S<z,f,|,i1:2_2^251-1D,},$,g>D:o*9+>O9oVXeXx.i.0.7.<.6.9.e.",
"d.U.qXkXOoqo'otOjOlO_.B { g$R$g%h%k%x%~%s*/=o-O-);11R2|2 3)2[1N<^,~,(,c<.1%1h;a*DX:>j,}>0>B:]&4+oO2ozXqXl.y.9.6.<.6.9.r.",
"f.Y.wXlX+oBo}otOgOEOxOOXq i } `#)$!$g%l%a*L*(=u-T-4;8;9;9;:;s;a;p;u;-;@;T-<$r .:B,a1f,F>->d:R&*+}o,okX9Xk.r.8.<.<.6.0.r.",
"f.Y.eXzX%oAo.O<O3OgO'O&+go.   @ m ;Xt@'#1$t$D$k%l*P*y-T-8;e;$;w;U-^%1..   PO$<02r2j1y,Z>#>e:U&++(o%ojX!.f.e.7.<.,.6.0.y.",
"j.R.rXNX*oGo-O-O>OtO!O4+v&7+soY         + & , , , < ,               O.j:r1y2g2i272S<$,0>D:3:F&(O~o+osXW.d.w.7.,.,.7.0.i.",
"k.W.tXVX,oPo.O.OoO3OEO1+c&]&Q&f+X+`o).I                   #.`.|;U:S>n,,2g2g2g2r2:2@<}>,>B:+:C&EOPoWXyXY.a.q.6.,.,.7.q.i.",
"l.Q.yXCX<o!o'o'o.O>OjO*+c&]&]&]&o*;=%:f:H:*>P>e,s,m,81;2:3.382.2v1v1R172g2i2i2r2^1|,)>#>d:>=c&gOGoYXtXU.p.0.<.,.,.7.w.p.",
"z.!.aXUX2o~o~o~o'o-OgO#+a+]&}&]&o*;=e:#>)>|,Z172i2G2=303i3y3#322Z1Z1^1i2i2i2r272Z1f,Z>D:e:==i+tOBoCXeXx.y.9.<.:.,.8.w.a.",
"x.9XsXYX4o!oPo!o(o.OtO++a+]&}&}&o*>=e:->}>|,R172r2g2#353u3u3=372R1R1:2i2i2r27222j11,0>B:3:$*9+<OqoVXwXl.r.8.,.:.<.8.e.d.",
"U.0XdXEXqoJoGoJo!o}o3O'Oi+]&o*}&$*>=e:->}>@<R172r2g2X323y3i3,3r2:2^172r2r2r272:2S<.,,>d:1:o*6+-O4ozX0Xk.e.7.,.:.<.9.r.f.",
"Y.wXkXOoBoAoBoAoJo'o<O'Oi+]&o*o*$*+:d:,>.,;<^12272i2X3;3r3p323g22222r2r2727222^1;<}>#>e:+:]&1+oO<olX9Xj.e.7.,.:.<.9.y.j.",
"W.eXlX+oAoqo9oqoGo~o>O(Ou+R&$*o*==+:d:,>$,;<:22272r2G2=3q3p353G27272i2r27222:2^1|,F>D:3:;=R&*+}o,ojX!.f.w.6.:.:.6.0.i.k.",
"Q.rXzX%oqo4o2o9oBo!o-O!Ou+R&==$*==1:x:0>$,S<:2:22272g2#303p303X3r2r2r2722222:2R1f,g>B:+:==U&#+'o%odXW.d.q.6.:.:.6.q.p.l.",
"!.tXVX,o4o<o<o2oqoPooOEO9+R&====;=1:B:0>,,J<'1]1X272i2X323i3q3#3g2i2e2@2{1]1~1v1y,0>d:>=o*J&'O~o+osXR.a.0.<.:.,.7.w.a.x.",
"9XaXCX<o<o*o*o,o9oJo.OEO9+Y&;===-=t=x=T=S;j;g;c;3<U<92G2,3u3y3$3m2O1i<!;f;c;9<s<'>->9:==}&F&(O!oOoaXY.p.0.<.:.,.7.w.d.U.",
"qXsXUX2o*o+o+o*o2oGo}ojO6+Y&>=:=r=b;C;q-y;]-#;9;Z*>$E,C2-383}2$15-y;y;{-o;9;u-Z*W%s=2:$*R&S&!OPoWXtXU.i.9.<.:.,.8.e.f.Y.",
"wXjXEX*o+oOoOo+o<oAo'ogO6+Y&,=w=c=c*P*4;q;B-y-X-x%I+B G1Y2';A;C;t-6-#;T-O-L*!$'+f Z.{&}&Y&c&jOJoYXrXx.i.9.,.:.<.8.r.j.R.",
"rXkXWX%oWXEXEXOo,oqo(otO4+U&1:3=[&SOB 1.<$h%k%k%h%i@q Y:v2q$4X/ 2XC#U#C#M+n       zo$*]&J&a+gOAoUXeXz.y.8.,.:.<.9.y.k.Q.",
"tXlX+oOoYXUXUXEX%o9o~otO4+U&3:1:3:i:4:L+]#W$h%h%h%,$i %.(152V>+.              J./&6:==Y&F&i+tOBoCXwXz.r.8.,.,.6.0.i.l.!.",
"yXNX+oEXUXVXCXYX+o4o!o3O1+U&3:3:9:x:;>Z=r$R$k%h%h%K$H   &<53t3p2b,!:GOV.L.{;7>{>,>9:o*U&C&u+3OqoVXwXl.r.8.,.,.6.q.p.x.9X",
"sXVXWXUXVXNXNXUXOo2o!o3O1+J&1:9:e:B:0>k>~$!$/%h%h%f%I+  2><3y3,3G272Q1q1*<s1i1$,#>1:}&F&c&9+<O9oNXqXk.e.7.,.,.7.q.a.U.qX",
"dXUXYXVXzXzXzXCXWX2oPo<O*+J&1:d:d:P:g>#,Z,W$h%h%h%h%h$, `Xo3y3,3G272^1Z1v1i1S<.,P:+:R&S&i+6+>O4ozX0Xk.e.7.,.,.7.w.d.Y.wX",
"jXYXUXNXlXkXlXVXEX<oJo>O*+J&1:x:B:#>Z>1,W,Q$!$x%h%h%_$n   D1y3;3g222^1Z1j1i1;<)>B:;=Y&c&u+4+-O2ozX9Xj.e.7.<.<.8.e.f.R.eX",
"lXYXVXlXkXjXkXNXYX,oJo>O#+F&1:B:D:->F>f,D<8*l%(%g%!$9$/   e,y3;3g222R1v1i1S<@<F>x:==J&i+6+1+oO2olX9Xj.e.7.<.<.9.r.j.W.tX",
"zXCXNXkXdXdXjXzXUX*oGo-O#+F&+:P:P:,>)>z,z1K,W$e$t@*Xf     <:e3;3i2:2Z1j1i1;<z,g>e:o*F&u+4+*+.O<okX!.j.e.7.<.6.9.y.k.!.yX",
"NXVXlXjXsXsXdXlXUX*oAo-O++F&+:#>->g>.,|,Z1><U#q           +,w3=3i2:2Z1j1S<@<f,0>9:}&C&6+*+*+.O,okX!.f.w.7.<.6.0.i.l.9XaX",
"VXNXkXdXaXaXsXkXCX%oAooO++S&+:->,>Z>$,@<R1p1;+  O.nOg:R>81S2r3=3r2^1v1i1;<|,y,->1:R&c&4+#+#+}o,ojX!.f.e.8.6.7.q.p.z.0XsX",
"NXlXjXsXyXyXaXjXVX+oBooO++S&>=->g>)>y,S<R1Z1F<q,v,91v1R172#3r3#3r2R1j1S<@<|,$,#>+:Y&i+*+'O'O'o*ojXQ.f.e.8.6.8.q.a.x.qXjX",
"zXkXdXaXtXtXyXjXVX+oBooO'OS&>=->F>.,f,i1Z1Z1v1j1j1j1v1R172X3q3#372R1j1;<|,z,.,P:>=J&u+#+(O(O'o*ojXQ.f.e.8.7.8.w.d.U.wXkX",
"lXkXsXyXtXtXyXdXNX+oBo.O'OS&>=->)>$,|,v1Z1Z1v1j1i1i1j1R172X3q3X322Z1i1@<z,f,}>B:==F&6+++!O!O(o%odXQ.f.e.9.7.9.e.f.R.eXlX",
"kXjXsXyXrXrXtXdXNXOoqo.O'OC&>=#>.,y,@<v1Z1Z1v1j1i1i1j1R122X303X322v1S<|,f,y,)>x:$*S&4+(OjOjO~o%odXQ.f.e.9.8.0.r.j.W.tXzX",
"kXdXaXtXrXrXtXsXNXOoqo.O'OC&>=#>.,f,S<v1Z1Z1v1j1i1i1j1Z122G203G2:2v1;<z,y,1,F>d:o*C&1+!OgOgO~o+odXQ.f.e.0.9.0.y.k.Q.yXzX",
"jXdXyXtXeXeXtXsXNXOoqo.O'OC&;=#>.,|,i1v1Z1v1v1j1i1i1j1Z1O2n2E241!<v</,6,<,.,Z>e:}&c&*+EOtOtO!o+odXQ.j.r.0.9.q.i.l.!.aXlX",
"dXsXyXrXeXeXtXsXzXOoqo.O(OC&;=#>.,|,i1v1Z1v1v1j1i1i1d1W<W;`-X;7;6;I-A-1-A=^>g>9:]&a+#+jO3O3O!o+osXQ.j.r.q.0.w.p.z.9XsXlX",
"dXsXyXrXeXeXtXsXzXOoqo.O(OC&;=#>.,|,i1v1Z1v1v1j1i1H<7<4---(-.;Y-R-3;x-z%Z q:0>9:R&i+++gO<O<OPoOosXQ.j.y.q.q.e.a.x.0XdXkX",
"dXaXyXrXeXeXtXsXzXOoqo.O(OC&;=#>.,|,i1v1Z1v1v1K<h<m;3;j#=     n R#5$/     @:0>3:Y&u+'OtO>O>OPoOosXQ.j.y.w.w.r.d.U.qXjXkX",
"sXaXtXrXeXeXtXsXNXOoqo.O(OC&;=#>.,|,i1v1Z1C1T<R;*-@-& v:o,e,N>E._+.     ko>>,>1:Y&9+(O3O-O-OJoOosXQ.k.i.e.e.y.f.Y.wXkXkX",
"sXaXtXrXeXeXtXsXNXOoqo.O'OC&;=#>.,|,i1v1Z1E<8-;-_-r bok1:2g2]2~;_+  P o:<>0>->+:U&6+!O<OoOoOJoWXsXQ.k.p.r.r.i.j.R.rXzXjX",
"sXaXyXrXeXeXtXdXNXOoBo.O'OC&;=#>.,|,i1v1K1I;=-^-x*  b+N1o2b2`;A*  vo6>L>g>,>#>+:J&6+EO>O.O.OGoWXsX!.l.p.r.y.p.k.W.tXNXjX",
"sXaXyXrXeXrXyXdXVX+oBo.O'OC&;=#>.,|,i1Z1z<)-/-x-2$e P.<<`</;=$N.E:%,.,F>0>#>D:>=J&4+EO>O}o}oGoWXsX!.l.a.y.i.a.z.!.yXNXjX",
"sXsXyXtXrXrXyXjXVX+oBooO'OC&>=#>.,@<j1H1Q; ;4;_%m$J+V q*L;!+4>01C<f,}>g>->P:B:>=F&1+jO-O'o'oAoWXsX!.z.d.i.p.f.x.9XaXNXjX",
"dXsXyXtXrXtXaXjXVX%oAooO++S&>=#>$,@<j1R<2;5;)=Y$G$]@u@P+t*,<@3:2;<y,)>0>#>D:d:>=F&1+jOoO'o(oAoWXsX9Xz.f.p.a.j.U.0XsXNXjX",
"dXsXaXyXtXtXaXkXCX%oAo-O++S&>=->$,@<j1k<d*z*B%A$A$A$_@_#;$9* 1)<n<=,z>&>P:x:e:;=S&*+gOoO(o~oAoEXsX9Xx.f.a.d.k.Y.qXjXNXjX",
"dXdXsXyXyXyXsXkXUX*oGo-O++S&>=->$,@<j1F14*_#P#'@A$A$H$A$A$j% &_=,--&1*/:m:d:3:;=S&*+gO.O~o~oBoEXdX0XU.j.f.f.l.W.eXkXNXkX",
"jXdXsXaXyXaXdXlXYX,oGo>O#+F&+:->$,;<v1R1T,] S 7X_#L#;$@$&$T#,XD r + t+N:x:9:1:;=S&*+tO.O~o!oBoEXdX0XY.k.j.k.x.Q.rXlXNXkX",
"jXjXdXsXaXsXjXzXYX,oJo>O#+F&+:,>1,;<v1R1W1G>g @ + & * &         lon:%>D:e:3:>===S&#+tO}o!oPoqoEXdXqXY.l.k.l.U.9XtXNXVXkX",
"kXkXjXdXsXdXkXNXEX<oPo<O*+J&1:,>1,S<Z1^1^1~1l,DO            GOT>;,)>->B:9:+:;=o*C&#+3O}oPoPoqoEXdXqXR.x.l.z.R.0XaXVXVXlX",
"lXlXkXjXdXjXlXVXWX2o!o3O1+J&1:0>y,S<Z1^1:2:2^1n1d,T>G>P>-,w182v1f,F>#>d:3:>=$*}&C&#+3O'oPoJoqoEXjXwXW.U.x.U.W.qXsXCXVXlX",
"lXlXlXkXjXkXzXCXOo4o~o3O1+U&3:0>y,i1R1:2:2:2^1R1Z1v1v1Z1:2i2g2j1y,Z>P:e:+:==}&R&C&#+3O'oPoJoqoEXjXeXQ.Y.U.Y.!.eXjXUXCXzX",
"zXzXzXlXlXlXNXUX+o9o(otO4+Y&3:g>f,i1R1:22222:2R1Z1v1v1Z1:2i2i2i11,g>B:9:>=o*]&Y&C&#+3O'oJoGo9oEXkXeX!.R.Y.W.9XrXkXEXCXNX",
"NXVXNXzXzXNXVXEX*oqo'ogO6+Y&9:g>f,j1^1227222:2^1R1Z1Z1R1:2i2i2i1$,0>x:1:==}&Y&J&C&#+3O'oJoGo9oEXkXrX9XW.W.Q.qXyXzXWXCXNX",
"VXCXVXVXNXVXUXWX,oAo}ojO9+R&e:Z>z,j1^172727222^1R1Z1Z1R1:2i2r2S<.,,>d:+:$*R&U&S&c&#+3O(oJoAo9oWXkXtX0X!.Q.9XwXsXNXWXUXVX",
"CXUXUXCXCXCXYXOo<oGo.OEOu+]&d:F>|,v1:272r27222:2^1R1Z1R1o2=2]<a<v>]:7:;=}&Y&F&C&i+#+3O(oGoAo9oWXlXyXqX9X9X0XrXdXCXWXYXCX",
"UXYXYXUXUXYXWX%o4oJooO!Oi+}&d:)>@<Z122r2i2r272:2^1R1P1^<r<k;D-1;z-N# +@*]&J&C&a+u+#+3O(oGoBo9oWXzXaXeX0X0XwXyXkXUXOoYXUX",
"EXWXEXEXEXWXOo,o9o!o-O'Oa+o*x:)>@<R172i2i2i2r2<2_<w<F;/*+&M$G@Z$P@o roX*Y&S&c&u+6+#+3O(oGoBo4oWXzXsXrXwXwXrXaXzXEXOoEXYX",
"WXOoOoOoOoOo%o<oBo~o<O++c&$*B:}>;<^1r2g2g2g2&2y<N-1;(#JOH>~:|X      %+}&U&C&i+9+4+#+3O(oGoBo4oWXNXsXtXeXeXtXdXNXWX+oWXEX",
"Oo+o%o+o+o%o,o4oAo(o3O#+C&==D:.,S<^1r2g2F2c2l;V-c-f*X M>22i2Y1I>&:I&$=]&F&a+9+4+*+++3O(oGoBo4oOoNXdXyXtXtXaXkXCX+o+oOoWX",
"%o*o*o*o*o,o2oqoJo}ogO*+S&;=P:$,i1:2i2G2P2i;f-M-i-m#a k+I1%2`1!,y>c:<=W&C&u+4+*+++'O3O(oGoqo4oOoVXjXsXyXaXdXzXYX*o%o+o+o",
"*o<o<o<o<o2o4oBo!ooOjO4+J&>=#>1,j122g2X331>;L-H*V$J@(#v#N*[-;;'-W-E-W*w&f&8+1+#+'O!OtO(oGoqo4oOoCXlXdXsXdXkXVXEX,o*o%o%o",
"<o2o4o4o4o9oqoGo(o-O!O6+U&+:->y,v172G2#3}<V%N$(#D#/#H#I@H*K->;K-K-H-'=b#t.|O#+'O!OEOtO'oGoqo4o+oCXzXjXjXjXzXCXOo,o*o*o*o",
"2o9oqoqoqoBoAoPo'o<O(Ou+Y&3:0>f,Z1i2X3=3j2>X+             F S@'%#&X&_@w   :O'O!OEOgOtO'oGoqo4o+oUXNXlXkXlXVXYX%o<o,o,o<o",
"9oBoAoAoAoGoJo~o.OtO++i+]&9:g>|,R1g2#3;3O32,XX$.o.X.....U   C G#!@z@)     2O(OEOgOtO3O'oGoqo4o+oYXVXzXzXNXUXWX,o<o<o<o2o",
"BoGoGoJoJoPo!o'o-OjO*+c&}&e:Z>@<:2G2;3*3/261|<L1V1M1h1h1l1k,t%C@F#a     vXQOEOgOtO<O>O'oGoqo4o%oEXCXVXVXCXYX+o2o2o2o2o9o",
"GoPo!o!o!o~o'o.O<O!O1+S&$*x:F>;<22X3&321Z-K-F*W={<U1)12272w2!= %      oX~O(OjO3O<O>O-O}oGoqo4o%oWXUXCXCXYXWX*o2o2o4o9oqo",
"Jo~o(o(o(o'o.O>OtO'O6+F&==B:}>S<72#3U2K-<;K-$&H%G%1%C=j</<*1[@9   m.%O2+#+EOtO<O-O-OoO}oGoqo4o*oOoEXYXYXWX+o<o2o4o9oqoAo",
"!o'o}o}o.OoO-O3OEO#+u+U&>=P:.,j1i2X3M2<*w           e H+j$;*<+^&_&(&J&9+++jO<O-OoO.O.O}oJoqo4o*o+oWXEXWX+o*o2o2o4oqoBoGo",
"(o.OoO-O-O>O<OgO(O1+a+R&1:#>1,v1g2G2S2/1!>3>~:^:u>n>W>0,x,A1u1$,D:;=F&6+(OtO>OoO}o}o}o'oJoqo9o,o+oOoOo+o*o<o2o4o9oBoGoPo",
"}o-O>O<O<O3OgOEO++6+C&}&3:,>y,Z1i2g2g2g2i2i2i2g2G2G2i2r2r2g2v1.,D:==S&4+!O3OoO}o'o'o'o(oJoqo9o<o%o+o%o*o,o<o2o4oqoAoJo~o",
"oO<O3OtOgOjOEO'O*+u+F&$*e:g>z,^1r2i2g2i2i2r2i2i2G2G2i2r2r2g2v1.,B:$*C&*+jO>O.O(o~o~o~o~oJoBo9o<o*o*o*o,o,o<o2o4oqoGoPo'o",
">OtOjOEOEO!O'O#+6+a+U&==x:Z>|,^172r2i2r2r2r2r2i2G2X3g2r2*2>1q<R=l=o=k&}OgO-O'o~o!o!o!o!oPoBo9o2o,o,o*o*o,o<o2o9oBoJo~o}o",
"3OjO!O(O'O++#+1+u+S&R&>=D:)>;<R12272r2r27272r2i2G2#3d2+1z;<;n-'=H*H*h*T%2&|o(oPoPoPoPo!oPoBo9o2o,o*o*o*o*o,o2o9oAoPo(ooO",
"gO!O'O++#+*+4+9+a+J&o*1:#>.,S<v1:2227272727272r2f2!2=1K-<;h*J@($O&R*&&m@G :o!oJoGoGoJoPoPoBo9o2o,o*o%o%o*o,o2oqoGo!o}o>O",
"EO++*+1+4+6+9+i+S&Y&==e:,>$,;<j1R1:22222222272q2:1d;B*3.        : #X#X    XoPoAoAoAoGoJoJoBo9o2o,o*o%o%o*o,o2oqoGo~ooO3O",
"(O*+4+6+9+u+a+C&J&]&>=x:0>y,@<i1Z1^1:2222222+2_;K-`$G.B>s,b,m>w+@.      T.HoGoBoqoBoAoGoJoAo9o2o,o%o%o%o%o,o2oBoJo'o-OgO",
"#+4+u+i+a+c&C&J&R&$*1:D:Z>f,|,S<v1R1^1:2:2|1p<<;<;> A:a2g2G2j1)>$=;ob.@o)o!oAoqo9oqoBoGoGoAo9o2o*o%o+o+o%o,o4oBoPo}o<OEO",
"1+u+a+C&S&F&J&Y&}&;=e:#>)>y,f,;<j1Z1^1^1^1~<<;<;J*. ,:S2g2G2j1)>e:L&@+hO.OJoqo4o4o9oqoAoGoAo9o2o*o%o+o+o%o,o4oAo!o.O3O(O",
"6+a+S&F&J&U&R&}&==1:x:,>$,1,y,@<i1Z1R1R1_1x;<;H-Q@e T /1g2G2j1)>9:Y&4+gO'oGo9o2o2o4o9oBoGoAoqo2o*o+o+o+o%o,o4oAo~ooOgO++",
"u+S&J&Y&R&]&}&$*>=9:D:g>$,$,1,|,S<v1Z1R1e<n->;J%v@V+9 C>D2G2j1)>9:U&1+tO(oAo4o<o,o<o9oBoAoAoqo2o*o+oOoOo%o,o4oGo(o>OEO*+",
"c&J&R&]&o*$*==>=3:x:->)>.,}>$,z,;<j1v1J1n;|=E*6$n@p@>.~ 2<A2j1F>9:U&*+3O~oBo<o*o*o,o4oqoAoAoqo2o*o+oOoOo%o,o9oGo'o<O(O4+",
"S&Y&}&$*==>=+:3:d:D:0>.,}>)>.,y,@<i1v1G<!%4%|$A@c@c@=#~#O#J,_,l>0=N&.+4O!o9o,o%o%o*o2oqoAoGoqo2o*o+oOoOo+o,o9oJo}otO'O9+",
"J&}&==>=+:1:9:d:B:->Z>$,)>F>}>1,@<S<j1f1e**#u#a@h@c@Z@s@d@4$6%=&|%w%Q+1&Ko4o*o+o+o%o<o9oAoGoBo2o*o+oOoOo+o,o9oPo.OgO#+i+",
"Y&$*>=1:9:e:d:B:#>0>}>.,F>Z>)>$,|,;<i1j1:<s.j ` y#q#&#+#+#a#t#F+y & bX/oJo2o%oOoOo+o,o9oAoGoBo2o*o+oWXOo+o,oqo!ooOjO1+c&",
"}&;=3:e:x:B:D:#>0>F>$,}>Z>g>Z>.,z,;<S<j1z1p,woo   O * &         nXrOTOoOGo<o+oWXWX+o,o4oBoGoBo2o*oOoWXOo+o<oqo!o-O!O6+S&",
"$*>=d:B:D:#>->0>Z>}>f,)>g>0>g>}>f,@<S<i1j1v1i1G:u.          };M:;=S&'OoOAo,oOoYXEXOo*o4oBoGoAo4o*oOoWXWX+o<oBo~o>O(O9+J&",
"==+:B:#>->,>g>Z>}>1,y,F>0>,>0>)>y,|,;<S<i1v1Z1~1b1r1t18181!1i1F>3:S&'O.OBo*oWXUXYXWX%o2oBoJoAo4o*oOoWXWX+o<oBo(o<O++i+Y&",
">=1:D:,>g>Z>)>}>1,z,1,Z>,>->,>)>1,z,@<S<i1j1v1R122g2,3;3#3X3j1F>1:S&(O}oBo%oEXCXUXEX%o2oBoJoGo4o*oOoWXWX+o<oAo'o3O#+c&]&",
"+:3:P:Z>)>}>.,1,f,@<$,g>->#>->F>$,z,@<;<S<j1v1R122g2;3,3=3#3j1F>1:S&(O}oqo+oYXCXCXYX+o2oBoJoGo4o*oOoWXWX%o<oAo'ogO1+S&$*",
"1:e:#>)>.,1,y,z,@<;<.,0>P:P:#>Z>.,f,|,;<S<i1v1R122g2;3,3'2I2b<t>a=V&bO_o5oOoUXVXVXYX+o2oBoPoJo9o*oOoWXWX%o2oGo}ojO4+J&;=",
"3:d:->$,y,f,|,@<i1@<}>,>D:D:P:g>.,y,z,@<;<i1j1Z1:2i2%3{2[;b-[=J*M*}%I%^$T+QXCXNXNXUXOo<oBoPoJo9o,o+oWXWX%o2oGo.OEO9+U&+:",
"e:x:,>1,|,@<S<i1v1|,)>->B:B:D:0>}>1,z,|,;<S<j1Z1:2-2<1O;J-d-]=T*Y*[%M%[#z pXVXzXNXCXOo<oBoPoPo9o,o+oWXWX%o2oJooO!Ou+R&3:",
"d:B:0>y,;<i1j1Z1^1z,F>#>x:x:B:,>)>1,f,z,@<S<i1c1Q<^;O&e#*     y 8#1@Q     uXNXlXzXCXWX<oAo!oPoqo,o+oWXOo%o4oJo-O(Oa+}&e:",
"x:D:g>f,j1Z1R1:2R1f,Z>P:d:d:x:->F>$,1,y,|,=<M<Y;J-7%% Q>81m,p:l.|+.     C.CXNXlXlXVXWX<oAo!o!oqo,o+oWXOo%o4oPo-O'Oc&$*x:",
"D:#>Z>z,R1^12272Z1y,g>D:e:e:d:#>F>.,.,$,f,d<&;L-d-9 FO13,3;3I<:&|+  3 IX&oYXzXkXlXVXWX<oAo~o!oqo<o+oWXOo*o4oPo>O++C&;=D:",
"P:->)>|,:272r2g2v11,0>B:e:9:d:P:Z>.,)>}>>,D;Z-b-v$  >:73>3(2U;b$  +X{o!o<oUXlXjXkXNXWX<oAo~o~oBo<o+oOoOo*o9o!o<O*+F&>=#>",
"->,>}>@<22g2G2G2j1$,,>x:9:3:e:P:g>)>Z>F>P,.-s-M%>@9 '.H2[2L= #=.{Oy+EO!o,oUXlXjXkXNXEX<oAo(o~oBo<o+oOoOo*o9o~o3O1+J&1:,>",
",>g>.,;<r2X3=3g2i1.,->d:3:1:9:D:0>Z>g>j>(*[=G*.$%@/+d F,H,R%j:8>5:C&EO!o,oUXkXdXjXNXEX<oGo'o(oAo<o%oOoOo*oqo~otO4+Y&9:0>",
"g>Z>$,S<i2;3,3i2S<}>#>e:1:+:3:B:,>0>,> >O&B*&%q@9@$@6#)+G,k2T1.,9:C&EO!o,oCXkXdXjXNXEX<oGo'o'oAo2o%oOo+o,oqo(ogO6+R&e:Z>",
"Z>F>y,j1g22303r2;<)>P:9:+:>=1:x:,>->#>):o$k$|#6@9@9@o@w#X#r*R,(>q=M&7OLo*oCXkXdXjXzXEX<oJo}o'oGo2o%oOo+o,oBo'ojO9+}&x:)>",
")>}>f,v1G2q30372@<F>D:3:>=;=+:d:->P:D:`:r%r#%#o@6@9@0@6@9@1#X$*%9%0%W+Co=oCXjXsXdXzXEX<oJo.O}oGo4o*o+o+o,oBo'ojOu+o*D:}>",
"}>.,z,Z1X3y35322|,Z>B:1:;===>=e:#>B:x:D:d=' v B+e#@#X#-@*@4#5XR 9 o #oDo*oVXjXsXdXzXEX2oJo.O.OJo4o*o+o%o<oAo}oEOi+$*P:$,",
"$,1,@<R1#3i323:2z,g>x:+:==$*;=9:P:d:e:x:X>#:t O o & * &         _XCOuO!o*oVXjXsXdXzXEX2oPooO.OJo9o*o+o%o<oAo.O!Oa+;=->y,",
"1,y,;<:2;3p3,3^1f,0>d:>=$*o*==9:B:9:3:e:D:d>i>9O            MOW:0:F&!O!o*oVXjXsXdXzXWX2o!o-OoOPo9o,o%o%o<oGo.O(OC&>=,>f,",
"f,z,S<22,3i3=3R1y,,>e:;=o*}&$*3:d:1:1:3:x:,>$,h,@,T>0,$<S142>2f,x:F&!O!o*oVXjXsXdXzXWX4o!o>O-O!o9o,o%o*o2oGooO'OS&+:g>|,",
"|,|,j1r223y3#3Z11,->9:==}&]&o*1:9:+:>=1:d:->}>z,;<v122#3q353i2z,x:J&!O~o*oVXjXsXdXzXWX4o~o<O-O!oqo<o%o*o2oJo-O++F&3:Z>;<",
"@<;<v1i203q3X3j1$,#>3:$*]&R&o*+:3:;===>=9:P:)>f,@<j1:2X3q303g2z,B:J&(O~o,oCXjXsXdXNXWX9o(o<O>O~oqo<o*o*o4oJo-O#+J&9:)>i1",
"S<i1R1g2q353G2i1}>P:1:o*R&Y&}&>=+:$*|&**5=D:F>f,|,i1^1G20303G2|,D:U&(O~o,oCXjXsXjXNXOo9o(o3O<O~oBo<o*o,o4oPo>O#+U&e:}>v1",
"j1j1:2X353,3i2S<)>D:+:}&Y&U&]&;=6=p=V=;&E%:*{:3,|,S<R1g25303G2@<P:Y&'O(o,oCXjXsXjXNXOoqo'otO3O(oAo2o,o,o9oPo>O*+Y&d:$,Z1",
"Z1Z122#3,3=3r2;<F>B:>=]&U&J&T&@=:-[=Y*%&=%d$O@C,a,;<R1i253q3X3;<K:X=s&s%p%u%/XGXFXBX$oBo}ogO3O'oAo2o,o<o9o!o<O1+R&x:1,^1",
"R1^1r2;3;3X372@<Z>d:;=R&J&G&|*p-p-.-o&.%l$d#|@&X.>;<Z1r223q3+3m<I=]=J*k*]%U%L%5%z$-#HXNo.OjOtO'oGo4o<o<oqo!o3O4+R&B:y,22",
":2:2g2,3#3g2:2z,g>e:==Y&m&{*#-[=n*x$<#8@8@-# @_ S.',v172,363,1~-s-p-E*{%2%=%X%c$f$}+2#LXXO!OgO}oGo4o<o2oqo~o3O4+]&D:f,72",
"7272G2;3G2i2^1f,,>9:o*K&h&{@4.8 d r#o@,@,@,@O@}@0 #=y1 2J2T;O&##9 . 6 @X.#+@<@8@;#+@(+0 So(OjO.OJo9o2o2oBo~otO6+}&P:z,r2",
"i2i2#3#3g272Z11,->3:}&J&l&`ONOdo- ! e#@@,@,@,@*@_ ! S,~=Y%W#].{;e+8o5 - 2.;@,@,@,@,@W#* MX)OjO.OPoqo2o4oBo(ogO9+o*#>|,i2",
"G2G2;3X3i222v1$,#>+:]&S&a+a+S&Q&^ON+E#}+,@,@,@o@]+s {+E#mXM,h2N1g>O*UOhX<X7#,@,@,@,@r#X  .kOEOoOPoqo4o4oAo'ogOu+$*->@<g2",
"#3#3,3G272:2i1.,D:>=R&C&i+i+C&R&v&0&6#X@0@#@.@}@$     KOB1t353R1Z>==4+OOE+:@#@,@,@,@@#;   yO!O-O!oBo4o9oAo'ojOu+$*,>;<G2",
";3;3;3g222R1S<)>B:;=U&c&u+u+c&Y&c&d&L$9@>#5#s       ::u1g2r3q3^1F>;=6+-O)X6@w@w@9@9@:@9   [o(O>O~oBo9o9oGo}ojOi+==,>S<X3",
"2323=3i2:2Z1@<F>d:$*J&a+9+9+a+U&i+5+3&|# #>     'XQ:g,v1i203r3:2)>>=9+>OMo:#1#{#6@9@.@y   ]o(O>O~oAo9oqoGo}oEOi+;=0>i1#3",
"0303#3r2^1v1|,g>e:o*F&i+6+6+i+J&u+4+q&5@-     -+>>}>f,j1r253y322}>+:u+<OVoY+}# $9@5@&@W   Wo'O<O(oGoqoqoJo.O!Oa+;=g>i1#3",
"r303X372R1j1f,,>3:}&C&9+4+4+u+F&9+*+9&:X  *.0+$>g>)>y,S<7223u372$,1:i+tOJoKX,#q@$#@#s     ao++3O'oGoBoBoJo.O!Oa+>=g>j1=3",
"u303X372R1j11,->1:R&c&6+*+*+6+S&6+#+vOfXfoZ&3:#>0>F>1,;<:2,3p3i21,3:c&gOPo(X%@[+o         BO#+3O'oJoBoAoPooO(Oc&>=Z>j1;3",
"p353G222Z1i1.,P:>=Y&a+4+#+#+4+c&1+++[O=+i+R&1:P:->Z>.,@<^1=3p3g2y,e:C&jO!omoD+      A.#o=Oi+#+tO}oPoAoAo!ooO(Oc&+:Z>v1;3",
"p353G222Z1S<)>B:;=J&u+*+++++1+a+*+'O'O1+i+Y&+:D:#>0>}>z,R1#3p3G2f,d:S&!O(o3oZX(.iXTXGo<O#+c&*+gO.OPoGoGo!o-O(OC&+:Z>v1;3",
"u353G222v1@<F>d:$*S&9+#+(O'O*+i+#+(O(O*+u+U&>=B:P:,>)>f,v1X3p3#3|,x:J&(O'o9o*o$o%o9o!o3O*+C&1+jOoO!oGoGo~o-O'OC&+:F>v1;3",
"r323g2:2v1z,g>e:}&C&4+++!O!O#+u+++!O!O#+9+J&-=':f=O>F>y,j1G2u3=3@<D:U&'O}oBo,o%o,oqo(otO4+S&4+EO-O~oJoJo(o>O++S&1:F>Z1,3",
"0323g2:2j1y,,>3:]&a+1+(OEOEO++9+'OEOEO++6+D&i=!-e@E&Z>1,i1i2y3;3;<P:Y&#+oOAo<o*o<oBo'ojO6+F&6+!O>O(oPoPo(o<O++S&3:)>Z1;3",
",3,3g2^1i1$,#>+:Y&i+#+!OjOjO'O6+(OjOjO'O3+ =G->;3#$Oq>$,S<r2r3,3i1#>]&*+-OJo4o<o4oGo}oEO9+J&9+(O<O'o!o!o'o3O#+F&3:)>R1#3",
"=3=3i2^1;<}>D:;=J&9+++EOtOgO!O4+!OgOgO/Oa&G-<;d-=@c ,*~>;<72q353j1,>}&4+<OPo9o2o9oJooO!Oi+U&i+'O3O.O(o~o}otO*+J&9:}>R1G2",
"X3X3r2R1|,F>x:==F&6+'OgO3OtOEO1+EOtOqOp&G-<;C-7%2@Q#4@Q%A,Y<4303v10>$*6+3O~oBo9oBo!o-O'Oa+R&a+#+tOoO'o'ooOgO1+U&e:.,^1r2",
"i2i222j1f,g>e:o*C&1+!OtO<O3OjO*+jO3OdO$-K-n-7%D@l@7@-$O%%%:%D=l21<d>==9+gO(oAoqoAo~o<O++c&]&c&*+jO-O}o}o-OjO4+Y&e:.,Z122",
"7272^1S<1,,>3:]&a+*+EO3O>O<OgO#+gO<O5O%%o%O$4@g@j@V@%$s$+%:%$%+%8%w*&*g&jO}oJoAoJo(o3O#+C&o*S&4+EO<OoO.O>OEO6+R&d:$,j1^1",
"^1:2Z1@<}>#>+:Y&i+++jO<O-O>OgO++tO>O+OJXp 9 x ^+p#3@s@B@#$y$a$[$#%#%@%a%6&EoIoGoPo}otO*+S&$*F&6+(OtO-O-O3O!O9+]&x:1,S<v1",
"Z1Z1i1z,F>D:>=U&9+'OtO-OoO-OtO'O3O-O-O6Ooo      X y Z+a#3@s@B@#$i$[$}$;%3%#%i%ZoTo.OjO4+J&;=U&u+++gO<O<OtO'Oi+}&B:y,|,i1",
"i1j1;<y,g>x:==F&6+(O3OoO.OoO3O(O<OoOoO<OWOIO&O]XL     X y Z+a#3@d@T@7${$>%>%-%|$U$<&fO6+U&>=R&a+*+EOtO3OjO++a+o*D:$,f,@<",
";<S<|,.,,>e:o*C&1+EO<O.O}o.O<O!O>O.O.O>OEO4+F&$*)&j+0O|     o y 3X~#+#d@$$u$]$p$u$3$P$8&L&+:}&C&4+(OjOgOEO*+c&$*P:}>1,z,",
"|,|,y,)>#>3:]&c&*+jO-O}o'o}o>OEO-O}o}o-OjO1+S&==3:d:F:+>w:HO4       9 %X0#s@A@$$0$*$a@6XYO1:o*F&9+++!OEO(O1+S&;=->Z>}>y,",
"y,f,$,Z>D:+:Y&i+++tOoO'o(o'o-OjOoO'o'ooOgO*+C&+*y=v=m=Y=K=3*Y>V,A:[.    y a#d@b@F@T@~#@ {.4===U&i+*+(O(O++6+F&>=,>0>F>.,",
"$,$,}>0>x:;=U&9+'O3O.O(o~o(ooOtO.O(o(o.OtO#+x&O=Q-K-+-&&%#v.E1,3G2:,&=eo: E !#x@x@0#w   {.$:>=R&c&4+#+++*+u+U&1:#>->g>)>",
")>}>Z>->e:$*F&6+!O<O}o~o!o~ooO3O}o~o~o}o3O_O'*F->;<;N%@   b:Z2;3X3@<#> *1On+~#s@s#e     VOe:1:}&S&9+1+*+4+a+R&3:D:P:->g>",
"Z>F>0>D:3:}&C&1+EO-O'o!oPo~o.O<O'o!o!o'o<Ou&l->;<;m%b   .o+<g2;3X3;<->==z&4&W@k#@     to.*d:9:$*J&i+6+4+9+C&]&e:x:B:P:,>",
"0>0>->x:+:R&a+#+gOoO~oPoJo!o}o>O(oPoPo(opOQ*<;<;P%f@j   =:i1i2=3G2S<,>;=A&_*O&w     uoZ&==x:d:;=Y&C&u+9+i+S&o*d:9:e:B:#>",
"#>->P:e:;=U&i+++tO.O!oJoGoPo}o-O~oJoJo~oe&K-<;&&E@x@o#w >+.<i2=3G2i1g>7=]*k-Z#  D.{o6+J&;=B:D:+:}&F&a+i+c&J&==9:1:3:e:B:",
"D:P:B:3:$*F&9+(O<O}oPoGoAoJo'ooO!oGoGoUou*i- -8$M@M@k@9#^#6*[<#1@1l<E=>-a-a#  -ouO*+i+U&>=B:#>9:$*U&S&C&S&R&>=1:>=+:3:d:",
"x:x:e:+:}&S&4+!O>O(oJoAoBoJo(o.OPoAoAoRoV*H*K%P@J@J@J@M@R@n%O&F*'=`=h*!#@ cX;O'O++1+a+R&+:D:,>d:;=]&J&F&J&}&1:>=;=;=+:9:",
"9:e:3:;=R&c&*+jO-O~oGoBoBoGo(o.OJoBoBoYoI$x@Z#V#z#l#x#i#S#V#G+l :     {X$+u+4+#+*+6+c&]&1:P:g>B:1:o*R&U&R&$*1:==$*$*;=+:",
"1:3:+:$*U&i+#+gO.O!oAoqoqoAo~o}oGoqoqoFo,&k & @ * * @           O.-:Q:y:o*S&9+1+1+9+S&}&3:#>F>#>9:;=}&]&}&;=+:$*}&}&o*;=",
">=+:;=}&F&9+'O3O}oPoBo9o9oBo!o'oGo9o9oAo^o1oc.            J.;:$<}1.21,D:==J&i+6+6+i+F&o*9:->.,,>x:+:==o*$*+:;=}&R&R&]&$*",
"$*;=$*R&C&6+(O<O'oJoqo4o4oBo!o(oAo9o4oBo!o-OhORO$+c+%=t:p>d,62X3g222f,#>>=U&c&u+u+c&U&$*e:,>1,Z>D:9:>=;=>=3:==R&U&U&Y&}&",
"}&o*}&U&a+1+EO>O(oGo9o2o4oqoPo~oBo4o4oqoPooO!Ou+}&d:,>Z>1,;<22X3g2r2z,->1:R&S&a+a+C&Y&==d:0>y,)>->d:3:+:1:9:o*Y&F&F&J&Y&",
"R&]&R&F&i+#+jOoO!oBo4o<o2oqoPo!oqo2o2o9oJo.OEO9+]&e:,>F>1,;<22X3g2r2|,0>9:}&J&C&c&F&R&>=x:0>f,.,0>D:e:9:9:1:}&J&C&C&S&J&",
"U&Y&U&C&9+++tO.OPoqo2o<o<o9oJoPo9o<o<o4oGo}ojO6+Y&9:0>F>1,;<22X3g2i2;<Z>e:$*Y&F&S&J&}&+:B:g>z,y,F>->B:d:x:+:]&S&a+a+c&S&",
"F&J&F&a+4+(O3O}oJo9o<o,o<o4oJoJo9o,o,o2oAo'ogO4+U&3:0>)>1,S<22X3g2i2S<F>x:;=]&U&J&Y&o*1:D:Z>z,z,.,0>#>D:P:>=Y&C&i+u+i+c&",
"C&S&C&u+*+!O>O(oGo4o,o*o,o4oGoJo4o,o*o<oBo(otO1+J&1:,>}>y,S<22G2g2i2j1}>D:+:o*Y&Y&]&==3:P:F>|,;<1,F>,>->D:;=U&a+9+6+9+i+",
"a+c&a+9+#+jO-O~oAo2o,o%o*o2oGoGo2o*o%o<oqo~o3O*+F&+:->}>y,S<:2B2N2u2v1$,#>3:==]&]&}&;=9:#>)>@<j1z,.,Z>0>B:==F&i+4+1+4+9+",
"u+i+u+4+'OgOoO!oBo<o*o%o*o2oGoAo<o%o%o,o9o!o<O#+S&>=#> ,Q,f<u<(;w-I,`,[>;>e:>=o*o*$*>=d:->}>;<Z1@<1,}>F>x:o*S&9+1+#+*+4+",
"6+9+6+*+(O3O}oPoqo<o%o+o%o<oAoAo<o%o+o*o4oPo-O++C&:=}:H;%;,;,;1;a-m*@&*&S=j=2=#*$*;=1:x:,>.,;<:2i1z,$,)>d:}&C&6+#+'O++*+",
"1+4+1+++EO<O'oJo9o,o+oOo%o<oAoBo,o+oOo%o2oJooO(Ox&+=3-c-m-L->;+-m*`%F%g*j*b*b*7*>*=*3:B:0>.,S<72Z1;<f,F>e:]&c&1+'O(O(O++",
"#+1+*+'OgO-O(oAo4o*oOoOo+o<oAoqo,oOoOo+o<oGo.O!Ob&g=2-n#    w -.)#L@F$b%D%@&b*@&<%q%-*S:g>$,i1g2^1j1@<F>9:R&i+*+(OEOEO(O",
"'O#+++!OtOoO~oBo2o%oOoWX+o,oBoqo*oOoWX+o<oAo@Oy&~*P-,%  hoLO    @ M y@c#)@E$v%Z%S$J#-X(:Z>1,j1G272Z1i1Z>3:Y&u+#+EOgOgOEO",
"!O'O(OEO3O.OPoqo<o+oWXWXOo,oBo9o%oWXEXOo>o8Op*m-S-v#  X:i,A<o<b>`.    u f#N@(@'@B$(#w coA>y,j1X3g2:2S<g>1:U&9+'OjOtOtOgO",
"jO!O!OgO>O'oJo9o,oOoEXEXOo*oBo4o%oWXEX^Xy*h-V-V-v-  7oZ>@<j1:2G2328,mO  e C+K@/@H@^   /.s>f,v1#3X3r2;<0>+:J&6+(OtO<O<OtO",
"gOEOjOtO-O(oGo4o*oOoEXYXWX*oqo4o%oEXYXd%V-g-2;R*U@> .Xh>@<j1:2G2G2X3s2O,PXA+J#h#a     s+`>z,Z1#3;3g2;<0>>=F&4+!O3O-O-O<O",
"3OgOgO<OoO~oAo2o%oWXYXYXWX*oqo2o+oEX~Xi*,;J-C%M$~@m+;.0*U,g1:2g2X3X3X3:2Y,/@[       |.=>.,|,R1=353G2@<,>>=S&1+jO<OoOoO-O",
">OtO3O>O}o!oBo<o+oEXYXUXEX%oqo2o+oYX!X)%.&c%n$n$n$^@M#`@S%Q=x<x2Q2~2!2'<0<B#    }X~&o>F>1,@<^1;3q3g2|,->;=C&*+gO-O.O}o.O",
"-O<O<O-O'oPoqo<o+oEXUXUXEX%oqo2oOoYXAXU+r@$Xg#U#K#+$Y@C$A%v*D*U*{=)*J=>&y%[X^&M:<>g>Z>}>y,;<:2,3u3g2|,#>==c&#+tOoO'o(o}o",
".O>O-O.O(oJo9o,oOoYXCXUXEX%oqo<oOoYXCXSXh.#   @ * = : 7 e h n h u 1 F.I:9,u,t,}>F>F>)>.,f,S<:2,3u3i2z,#>$*a+++3O.O(o~o(o",
"}ooOoO}o~oGo4o*oWXUXCXCXYX%o9o<oOoUXCXUXRXgX&.                  6oJ>12Z2:2i1z,$,}>)>}>$,z,i12223u3r2f,P:o*a+'O<O'o!o!o~o",
"(o.O.O'o!oAo2o%oWXUXVXCXYX+o9o<oWXUXVXCXEX*o0oyoQoeO,+%=J:P>w,B1a2=3;3=372v1@<f,$,.,$,y,|,j17253y3r2f,D:o*i+(O>O(oPoJoPo",
"~o'o}o(oPoBo2o+oEXCXVXVXYX+o9o,oWXUXVXCXYX*oBo.O(Oc&;=->y,v122G2#3;3,3;3i2R1i1|,y,1,y,f,@<v1r223q372y,D:}&u+!O-O~oJoGoJo",
"!o(o(o~oJoqo<o+oYXCXVXVXUX+o9o,oWXCXVXVXYX%oqo}o!Oa+==#>1,v172G2#3;32323G2:2v1;<z,f,f,|,S<Z1i2=353221,B:]&9+EOoO!oAoBoGo",
"Jo~o~o!oGo9o,oOoYXVXNXVXUX+o9o,oWXCXNXVXUX+oqo'oEOa+$*P:1,v172G2=3,35303#3r2R1i1;<|,|,@<i1R1g2X3;3:21,x:]&6+jO.OPoBoqoBo",
"Go!o!oPoAo4o*oWXUXVXNXNXUX+o9o,oWXCXNXNXUX+o9o(ojOi+$*P:1,j172G2=3235303;3g2:2v1i1;<;<S<j1^1r2g2#3:2$,d:R&6+gO}oJoqo9oqo",
"AoPoPoJoBo2o*oWXUXNXzXNXUX+o9o,oWXCXNXNXCXOo4o(ojOu+o*D:$,j172G2=32303q323X372^1v1i1S<i1v1:222r2G2^1.,d:Y&4+tO'oGo9o4o9o",
"BoJoJoGoqo2o%oEXCXNXzXNXUXOo9o*oWXCXNXNXCXOo4o~ogO9+}&D:$,j172G2;353q3r303=3g222R1v1j1v1R1:2^122r2R1.,e:U&1+3O(oAo4o2o4o",
"qoGoGoAo9o<o+oEXCXNXzXNXCXOo9o*oWXCXNXNXCXWX2o!otO9+}&B:.,j172G2=353r3y3r3,3X3r2:2R1Z1Z1^1^1Z1^122R1}>9:U&*+3O~oBo2o<o2o",
"9oAoAoBo9o,o+oYXVXzXzXzXCXOo4o*oWXCXNXzXVXWX<oPo3O6+]&x:.,i172G2=323r3u3u353=3g272:2^1^1:2Z1v1Z1^1Z1)>9:J&*+<O!oqo<o,o<o",
"4oBoBoqo4o,oOoYXVXzXlXzXCXOo4o*oWXCXNXzXVXEX<oPo3O4+]&x:.,i172g2#3,3q3i3p3q3,3X3i27222:2^1j1i1j1Z1v1)>3:F&#+>OPo9o,o*o*o",
"2oqoqo9o2o*oOoUXVXzXlXzXCXOo4o*oWXCXNXzXVXEX,oJo<O4+R&x:}>i172g2#3;303y3p3y353;3G2i27272R1i1;<S<j1j1F>1:F&++-OPo4o*o%o*o",
"<o9oqo9o2o*oWXUXNXlXlXzXCXOo4o,oWXCXNXzXNXYX,oJo<O1+Y&d:}>i172g2X3=323r3p3p3r323=3G2i222Z1S<|,@<S<j1Z>1:S&++-OJo2o%o+o%o",
",o4o9o4o<o%oWXUXNXlXlXzXCXOo4o,oWXCXNXzXNXYX*oGo>O1+Y&d:}>i172g2X3=3,303u3p3u303,3#3g2:2j1@<z,z,@<S<Z>+:C&'OoOGo2o+oOo+o",
"*o2o4o2o,o%oEXCXNXlXlXzXCXOo4o,oWXCXNXzXNXYX*oGo>O*+Y&e:)>i172g2G2#3;353r3i3p3r353;3g2:2i1|,y,y,z,@<g>>=C&(O.OAo<o+oWXOo",
"%o2o4o2o,o+oEXCXzXlXkXzXCXOo4o,oOoUXNXzXNXYX*oAo-O*+U&e:)>i172g2G2X3=3,303y3p3i3q3;3g2^1S<z,1,$,y,z,0>>=c&(O.OAo,oOoEXWX",
"%o<o2o<o*o+oEXCXzXlXkXzXCXOo9o,oOoUXNXzXNXUX%oAo-O#+U&e:)>S<72g2g2G2X3=323q3i3p3r3;3i2R1;<y,.,.,$,1,,>;=c&!O}oBo*oWXYXEX",
"+o,o2o<o*oOoYXCXzXlXkXzXCXOo9o<oOoUXNXzXNXUX%oAooO#+J&9:)>S<72g2g2g2G2#3;353r3p3r3;3i2R1;<1,}>)>}>$,,>==a+EO'oBo*oEXYXEX",
"Oo,o<o,o*oOoYXVXzXkXkXzXCXOo9o<o+oYXVXzXNXUX%oBooO++J&9:)>S<72g2g2i2g2G2#3,303u3r3,3i2Z1@<$,F>F>F>}>->==i+EO'oqo%oEXUXYX",
"Oo*o<o,o%oOoYXVXzXkXkXzXCXOo9o<o+oYXVXzXNXUX%oBooO++J&9:F>S<72g2i2i2i2g2G2=323r3y3,3i2Z1|,.,Z>g>g>F>#>$*i+jO(o9o%oYXCXUX",
"WX*o,o*oOoWXYXVXzXkXkXzXCX+oqo2o%oYXVXzXNXUX%oBo.O++F&9:F>S<72g2i2r2r2r2g2X3;353y3,3i2v1z,}>g>0>0>g>P:o*u+jO(o9o+oYXCXUX",
"WX%o,o%oWXEXYXVXzXkXkXzXCX+oqo2o%oEXCXNXNXUX+oBo.O'OF&3:F>S<r2g2i2722272r2g2#3,3q3,3i2v1f,)>0>->->,>D:o*9+gO~o4oOoUXVXCX",
"EX%o*oOoYXYXUXVXzXkXkXzXCX+oqo4o*oEXCXNXNXUX+oqo.O'OF&3:F>S<r2G2r222:2:222r2G2=353,3i2j1f,F>,>#>#>->D:}&9+tO~o4oOoUXVXCX",
"EX%o*oWXUXCXUXVXzXkXkXzXCX+oqo4o*oWXCXNXVXUX+oqo.O'OF&3:F>i1r2G2r222^1^1^122r2X3,323i2j1y,Z>#>D:D:P:B:]&6+tO!o2oWXCXNXVX",
"YX+o%oYXCXVXCXVXzXkXkXzXCX+oBo9o,oOoUXVXVXUX+oqo.O'OF&3:F>i1r2G272:2R1Z1R1^122g2#323i2j11,g>P:B:B:B:x:]&4+3O!o2oWXCXNXVX",
"YX+oOoUXNXNXVXVXzXkXkXzXUX+oBo9o,oOoUXVXVXUX%oqo.O'OF&3:F>i1r2G272^1Z1v1v1Z1^172G2;3i2j11,0>D:x:d:x:d:R&4+3OPo<oWXVXzXNX",
"YX+oEXVXzXzXNXVXzXlXlXzXUX%oBoqo<o+oYXCXVXYX%oqo.O'OF&3:F>i1i2G272R1v1i1i1j1Z1:2i2#3i2i1$,0>D:d:e:e:e:Y&1+<OPo<oEXVXzXNX",
"UXOoYXNXlXkXzXVXzXlXlXzXUX%oAoBo2o+oEXCXCXYX%oqo.O'OF&3:F>i1i2G272R1j1S<;<S<j1R172G2i2i1$,,>B:e:9:9:9:U&*+<OJo,oEXNXzXNX",
"UXOoUXlXjXjXlXNXzXlXlXNXUX%oAoBo4o%oEXUXCXYX%oBo.O'OF&3:)>i1i2G222Z1i1;<@<@<S<v1:2i2i2i1$,->x:9:3:3:3:J&*+>OJo,oYXNXlXzX",
"UXOoVXkXdXdXkXNXzXlXlXNXUX%oAoAo4o*oWXUXUXEX%oBo.O'OF&3:)>j1g2G222v1S<|,z,|,@<i1R172i2i1.,->d:3:1:1:1:J&#+-OGo*oYXNXlXzX",
"UXWXNXjXsXsXjXzXzXlXlXNXYX*oGoGo9o,oOoYXUXEX*oBo.O'OF&9:)>j1g2G222v1;<z,f,f,z,;<v1:2i2i1.,#>d:1:+:>=+:F&++-OGo*oYXzXlXzX",
"UXEXzXdXaXaXdXzXzXlXlXNXYX*oGoJoqo<o+oEXYXWX*oBo.O'OF&9:)>j1g2G2:2j1@<f,1,1,y,|,i1R172i1.,#>e:+:>=;=;=S&++oOAo*oUXzXlXzX",
"CXYXkXaXyXaXdXlXzXlXzXNXYX*oGoPoBo2o+oWXEXWX,oAooO++F&9:}>v1G2G2:2j1|,1,$,.,$,f,;<v1:2i1.,#>9:+:;=====C&'OoOAo%oUXzXkXzX",
"CXUXjXyXtXyXsXlXNXzXzXVXEX,oJo!oAo4o%oWXEXOo,oAooO++J&9:}>v1G2G2:2i1z,$,}>)>}>1,|,i1^1i1}>P:9:>===$*$*c&(O.OBo%oUXzXkXlX",
"CXVXdXtXrXtXaXkXNXzXzXVXEX,oJo~oGo9o*oOoWXOo<oGooO++J&e:}>v1X3G2:2S<f,.,)>F>)>.,f,;<Z1i1}>P:9:>=$*$*o*a+(O}oBo+oCXlXkXlX",
"CXNXsXrXeXrXaXkXNXzXzXVXEX,oJo(oJoqo,o+oOo+o<oGo-O#+J&e:.,Z1X3G2^1S<y,}>Z>g>Z>)>1,|,j1i1}>P:3:;=$*o*}&a+!O}oqo+oCXlXkXlX",
"CXzXaXeXwXrXyXkXNXzXNXCXWX<oPo'oPoBo<o%o+o%o2oJo-O#+U&d:.,Z1#3G2^1;<1,)>g>,>0>Z>.,f,S<i1}>P:3:;=o*}&]&i+EO'oqo+oCXlXkXlX",
"CXlXyXeXwXeXyXjXVXNXNXCXWX<oPo}o!oAo2o*o%o*o4oJo>O*+U&d:$,R1#3G2^1;<$,F>,>->->0>)>1,@<j1}>P:3:==o*]&]&u+jO'o9oOoVXlXjXlX",
"CXkXtXwXqXeXyXjXVXNXNXCXWX2o!o.O~oGo4o,o%o*o4oPo>O*+Y&d:$,R1=3X3^1@<$,g>->P:#>,>Z>.,z,S<}>P:1:==}&]&R&9+gO(o9oOoVXkXjXlX",
"CXjXrXqXqXwXtXjXVXNXVXUXOo2o!ooO(oJo9o<o*o,o9o!o<O1+Y&x:1,^1=3X3^1@<.,0>#>D:D:#>0>)>y,@<}>P:1:==}&R&Y&6+gO~o4oWXVXkXjXlX",
"CXjXrX0X0XwXtXjXVXVXVXUXOo4o~o-O}oPoBo2o,o<oqo!o3O4+R&B:1,^1;3X3R1|,}>,>D:x:x:D:->Z>$,z,.,P:1:==}&R&U&4+tO~o2oWXNXkXjXlX",
"CXdXeX0X0XqXtXjXCXVXVXUX+o4o~o>O.O!oAo4o2o2oBo~otO4+]&B:y,:2;3X3R1|,)>->B:d:d:x:P:g>}>f,.,P:1:==}&R&J&1+3O!o2oWXNXkXjXlX",
"CXsXwX9X9XqXtXjXCXVXCXYX+o9o(o<OoO(oGo9o4o4oAo(otO6+}&D:y,22,3X3R1z,)>#>x:e:9:d:D:,>F>1,.,P:1:$*]&R&F&*+<OPo<oEXNXkXjXkX",
"CXsXwX9X9XqXtXjXCXCXCXYX+o9o(otO-O'oJoBo9oqoGo'ogO9+}&P:f,2223X3R1z,F>#>d:3:3:9:x:#>Z>.,.,P:3:==]&Y&C&#+>OJo<oEXzXjXjXkX",
"CXaXqX9X9XqXtXkXUXCXUXEX%oqo'ogO<O}o!oAoqoBoJo}ojOu+o*#>z,7223X3R1z,Z>P:e:1:+:1:e:D:0>)>$,P:3:==]&Y&c&++-OJo,oYXzXjXjXkX",
"CXaXqX!.9XqXtXkXUXCXUXEX%oqo}ojO3OoO~oGoBoAoPo.OEOi+$*#>|,r253X3Z1f,Z>D:9:+:>=+:3:x:->Z>}>#>3:==}&Y&a+(OoOGo*oYXzXjXdXkX",
"CXaXqX!.9XqXtXkXUXUXUXWX*oBo}o!OgO-O(oPoGoGo!o-O!Oa+==->@<i203X3Z1f,g>B:3:>===;=1:d:P:0>)>#>3:==}&Y&i+!O.OAo*oUXlXjXdXkX",
"CXyXqX!.9XqXyXlXYXUXYXWX*oBo.O(OjO>O}o!oJoPo(o>O'Oc&;=,>@<i203X3Z1y,g>x:1:==$*==>=9:B:,>Z>#>9:==}&Y&9+EO}oBo%oUXlXdXdXkX",
"VXyXqX!.9XqXyXlXYXUXYXOo,oAo.O'OEO3O.O(o!o!o'o<O++C&>=0>;<g2q3X3Z1y,0>x:+:$*o*o*;=1:x:#>0>->9:;=}&U&6+jO'oqo+oCXlXdXdXkX",
"VXyXqX!.9XwXaXzXYXYXEXOo<oAooO#+(OtO-O'o~o~o}o3O#+S&+:g>S<G2r3X3Z1y,0>d:>=o*}&}&$*+:e:D:->->e:;=o*F&1+gO(o9o+oVXkXdXdXkX",
"VXyXqX9X9XwXaXzXYXYXEX+o<oGo-O*+'OjO>O.O'o'ooOgO1+J&3:F>i1X3r3X3Z11,,>e:;=}&]&]&o*;=3:x:P:#>e:>=o*C&*+3O~o4oOoVXkXsXsXkX",
"VXaXqX9X0XeXsXNXEXEXWX+o2oJo>O1+#+EO3OoO}o}o-OjO4+U&9:)>v1#3r3X3v11,,>e:==]&Y&R&]&==1:d:D:D:d:>=}&c&#+<O!o2oWXNXjXsXsXkX",
"VXaXwX0X0XeXsXVXEXEXWX%o4oPo>O1+*+(OtO>OoOoO<O!O6+Y&e:}>Z1=3r3X3v11,->9:==R&U&U&R&o*>=9:x:B:e:>=R&i+'O>OPo<oEXNXjXsXsXjX",
"VXaXwX0XqXrXdXCXWXWXOo*o4oPo<O4+4+'OjO<O-O>OtO'Ou+]&x:.,R1;3r3G2v1$,->3:$*R&J&J&Y&}&;=3:e:d:9:;=U&u+(O-OJo<oEXzXdXaXsXjX",
"VXsXeXqXwXtXjXUXWXWX+o*o9o!o3O6+6+#+EOtO<O<OgO++a+o*B:1,^1,3r3G2v1$,#>3:o*Y&F&F&U&]&$*+:9:9:1:$*J&9+!O.OGo,oYXlXdXaXaXjX",
"NXdXeXwXwXyXkXUXOoOo+o,oqo~otO9+9+*+(OgOtOtOEO*+c&$*P:y,2253r3G2j1.,#>1:}&U&S&S&J&Y&o*>=1:3:>=}&S&4+jO}oAo*oUXlXsXaXaXjX",
"NXjXrXwXeXaXlXYXOo+o%o<oBo'ojOi+i+4+++EOgOjO(O4+S&;=#>z,7203r3G2j1.,P:+:}&J&C&C&S&U&}&==+:+:;=]&C&1+gO'oBo%oCXkXsXyXaXdX",
"NXjXtXeXrXsXzXEX+o+o*o2oAo}oEOa+a+6+#+(OEO!O++6+J&+:,>|,r2q3q3g2i1}>D:+:]&F&C&c&C&J&R&$*;=>===Y&c&*+tO(oqo+oCXkXaXyXyXdX",
"zXkXyXrXtXdXNXWX+o%o,o4oJo.O!Oc&C&u+1+'O(O(O*+u+Y&1:g>;<g2y3q3g2i1}>D:>=R&S&c&a+c&F&Y&o*==;=o*U&i+++3O~o9oOoVXjXaXtXyXdX",
"zXzXaXyXyXjXVXOo%o*o<oqoPooO(OC&S&i+4+#+++++1+a+]&9:Z>i1X3u3q3i2S<)>B:;=R&S&a+i+a+S&U&}&$*$*}&J&u+'O>O!o4oWXNXdXyXtXyXsX",
"zXNXdXaXsXkXCX+o*o,o2oBo!o>O++F&F&c&9+1+#+*+6+C&o*d:)>j1#3i303i2S<)>B:;=Y&C&i+i+a+C&J&R&o*o*]&S&9+(O-OPo2oWXzXdXyXtXtXsX",
"lXVXjXsXdXlXUX*o,o<o4oAo(o<O#+J&J&C&u+6+1+4+u+F&$*B:.,Z1#3i353r2;<F>x:==U&c&i+u+i+c&F&Y&}&}&Y&C&4+!OoOJo<oEXzXsXtXrXtXsX",
"lXCXkXdXjXzXYX,o,o2oqoGo'otO1+Y&Y&F&a+9+6+9+a+U&;=P:1,^1=3i323r2;<F>x:==U&c&u+9+u+a+S&U&]&]&U&c&1+EO.OGo,oYXlXsXtXrXtXaX",
"lXCXzXkXlXVXWX,o<o4oBoPo.OgO4+R&R&J&C&i+u+i+C&R&1:->f,^1=3i3,372@<Z>d:$*J&a+9+6+9+a+S&U&R&R&J&a+*+gO}oAo*oUXlXaXtXrXrXaX",
"kXCXNXlXzXCXOo<o2o9oAo!ooOEO9+}&]&U&S&c&a+c&F&}&9:0>|,^1=3y3=372@<Z>e:$*J&a+9+6+9+i+C&J&Y&Y&F&i+#+tO'oBo%oUXkXaXrXeXrXaX",
"kXCXCXNXNXUX+o2o4oqoGo(o>O(Oi+o*o*R&J&S&C&S&U&$*d:Z>@<^1;3r3#322|,g>e:o*F&i+6+4+6+u+c&F&U&U&S&u+++3O(oqo%oCXjXyXrXeXrXaX",
"kXVXUXVXCXEX*o2o9oAoPo'o<O'Oa+==$*]&Y&F&F&J&]&>=B:)>@<:2;303G2:2z,0>9:o*F&i+6+4+6+u+a+S&J&J&C&9+'O<O~o9o+oVXjXyXeXeXrXyX",
"kXVXEXUXYXWX,o4oqoGo!o.OtO#+C&;===o*R&U&U&Y&o*1:P:.,;<:2,353g2^1z,0>9:}&S&u+4+4+4+9+a+S&F&F&c&6+(O<O~o9oOoVXjXyXeXeXrXyX",
"jXVXYXEXEX+o<o9oBoJo(o-OjO1+F&>=;=$*}&R&R&]&==9:->1,;<22,3,3i2R1f,,>3:}&S&u+4+1+4+9+i+C&F&S&a+4+!O>O!o4oOoNXdXtXeXwXeXyX",
"jXVXYXOoOo*o4oqoAoPo'o>O!O6+U&+:+:;=o*}&}&o*>=d:0>1,;<22,3;372v1f,,>3:]&S&u+4+1+4+6+i+c&S&S&i+1+!O-OPo2oWXNXdXtXeXwXeXyX",
"jXNXYXOo%o,o4oBoJo~o.O3O'Ou+R&1:1:>===$*$*==1:B:Z>1,S<2223#322j1y,->1:]&C&9+4+1+1+6+i+c&C&C&i+*+EOoOJo2oWXzXsXtXeXwXeXyX",
"jXNXYXOo*o2o9oAoPo(o-OgO#+a+}&3:3:1:>=;=;=>=9:P:}>1,S<7223G2^1i1y,->1:]&C&9+1+*+1+6+u+c&C&c&u+*+jOoOJo<oEXzXsXtXwXwXeXyX",
"jXNXYXOo*o2oqoGo!o}o>OEO1+C&$*e:9:3:+:>=+:3:x:,>}>y,S<7253g2R1S<1,#>1:R&C&9+1+*+1+6+u+a+c&c&9+#+gO.OGo<oEXzXsXrXwXwXeXyX",
"jXNXYXOo*o2oBoJo~o.O3O(O6+F&;=d:d:e:3:1:3:e:D:g>}>y,i1r253r2Z1@<1,#>+:R&c&9+1+*+1+6+u+a+c&a+9+++gO}oGo,oYXlXsXrXwXwXeXyX",
"jXNXYXOo,o4oBoPo'o-OgO++u+U&+:x:x:d:e:9:e:x:#>F>}>y,i1r2,372j1|,$,P:+:R&c&9+1+*+1+6+u+a+c&a+6+++tO}oAo,oYXlXsXrXwXwXeXyX",
"jXNXYXOo,o9oAo!o}o<OEO*+a+R&3:B:B:B:x:d:x:D:,>}>.,f,i1i2;3:2i1z,.,P:+:Y&c&9+1+*+1+6+u+a+c&i+6+'OtO'oAo*oYXlXaXrXwXwXeXyX",
"jXNXYX+o,o9oGo~o.O3O(O4+C&}&e:D:P:D:B:B:D:#>g>}>.,f,j1i2#3^1;<f,.,P:>=Y&c&9+1+*+1+6+u+i+a+i+4+'O3O'oBo*oYXlXaXrXeXwXrXyX",
"jXNXYX+o<oqoJo(o-OgO'O9+F&$*x:P:#>#>P:P:#>,>)>}>.,f,j1i2G2Z1@<y,}>D:>=Y&c&9+1+1+1+6+u+i+a+i+4+'O3O'oBo*oUXlXaXrXeXeXrXyX",
"jXNXYX+o<oBoPo'o>OEO#+i+U&;=B:#>->->->->,>Z>.,}>.,z,v1g2g2v1|,1,)>D:>=Y&c&9+4+1+1+6+u+i+a+i+4+(O3O(oBo*oUXlXsXtXeXeXrXaX",
"jXNXYX+o2oBo!o.O3O!O1+c&R&+:D:->,>0>,>0>g>)>$,}>$,z,v1g2r2j1z,$,F>D:>=Y&c&9+4+1+4+6+u+a+a+i+4+(O<O(oBo*oUXlXsXtXeXeXrXaX",
"jXNXYX%o2oAo~ooOtO'O6+S&}&9:P:,>g>g>g>Z>F>.,$,}>$,z,v1G272S<y,.,Z>B:;=Y&c&9+4+1+4+6+u+a+a+u+1+(O<O(oqo%oUXlXsXtXrXrXtXaX",
"kXVXEX%o4oGo(o-OjO#+u+J&==d:#>0>Z>F>F>)>}>1,$,}>$,|,Z1G2:2;<1,}>g>B:;=Y&c&9+4+4+4+9+u+a+a+u+1+(O<O(oqo%oUXlXsXtXrXrXtXsX",
"kXVXEX*o9oJo'o<O!O1+a+Y&>=x:->g>F>)>}>}>$,f,$,}>$,|,Z1X3^1@<$,)>g>B:;=Y&C&u+6+4+6+9+i+a+a+u+1+!O<O~oqo%oUXlXsXyXrXrXyXsX",
"lXVXEX*o9oPo}o3O(O6+C&}&1:B:,>F>}>.,.,$,y,f,$,.,1,|,R1G2Z1z,.,F>0>B:;=Y&C&u+6+6+6+u+i+a+a+u+1+!O<O~oqo%oUXlXdXyXtXtXyXdX",
"lXCXWX,oqo!o.OgO++u+F&$*9:D:0>)>.,$,1,y,z,f,$,.,1,@<R1g2v1f,}>Z>,>x:;=Y&C&u+9+6+9+u+a+c&c&i+1+!O<O~oqo*oYXzXdXaXyXyXaXdX",
"zXCXWX,oBo~o-OjO*+a+Y&;=9:P:g>}>$,y,f,z,@<f,$,.,1,@<R1r2i1y,)>g>,>x:;=Y&C&i+9+9+9+i+a+c&c&i+1+!O<O~oqo*oYXzXjXaXyXyXsXjX",
"zXUXOo<oAo(o>O!O1+C&]&>=e:#>Z>.,y,f,|,@<S<f,$,.,1,@<^122S<1,F>0>->x:;=R&S&i+u+9+u+i+c&C&c&i+1+!O<O~oqo*oYXNXjXsXaXaXsXjX",
"NXUXOo2oAo'o<O(O6+F&}&+:d:->F>$,f,|,@<S<S<f,$,.,y,;<^1:2;<$,Z>,>->x:;=R&S&a+u+u+i+a+c&C&C&i+4+(O<O(oBo*oEXNXkXdXsXsXdXkX",
"VXYX+o2oGo}otO++u+U&o*1:x:,>)>1,z,@<S<j1S<y,$,.,y,;<^1^1|,.,g>,>#>x:;=R&S&a+i+i+i+c&C&S&C&a+4+(O<O(oBo,oEXVXkXdXsXdXjXlX",
"VXYX%o4oJo.OgO#+a+Y&$*1:B:0>}>y,@<S<j1Z1;<y,$,$,y,;<:2Z1z,}>g>->#>x:;=R&F&c&a+i+a+c&S&S&S&a+4+(O<O(oBo,oWXVXlXjXdXjXkXzX",
"CXEX*o9oPooOEO1+C&]&==3:D:g>.,z,;<j1Z1^1;<y,$,$,y,S<:2v1f,)>0>->#>x:>=]&F&C&a+a+c&C&S&F&S&a+4+(O<O(oAo,oWXCXzXkXjXkXlXNX",
"UXWX*oqo!o>O!O6+F&}&;=9:P:g>$,|,S<v1R1R1@<y,$,$,f,S<:2i1y,F>,>#>P:x:>=]&J&C&c&c&C&S&F&F&F&c&6+'O3O'oAo<oOoUXNXlXkXlXzXVX",
"YXOo,oBo(o<O'Ou+U&o*>=e:#>Z>1,@<j1R1:2Z1@<y,$,$,f,S<22S<1,Z>->#>P:x:>=]&J&S&C&C&S&F&J&J&F&c&6+'O3O'oGo2oOoUXVXzXlXzXNXCX",
"EX+o<oAo'o3O++i+R&$*+:d:->F>y,;<v1^172Z1@<y,$,$,f,S<^1;<$,g>->P:P:x:>=}&U&F&S&S&F&J&U&U&J&C&9+'O3O}oGo2o+oYXVXNXzXNXVXUX",
"WX%o2oGo}ogO*+c&}&==3:x:,>)>f,S<R122r2v1|,1,$,$,f,i1R1@<.,g>#>P:P:x:+:}&Y&J&F&F&F&U&Y&Y&U&C&9+++tO}oJo4o%oEXUXVXVXVXUXYX",
"Oo*o4oJo.OjO1+S&o*>=9:B:0>}>z,i1^1r272j1|,1,$,1,z,i1Z1|,}>0>#>D:P:B:+:o*Y&J&J&J&J&Y&Y&R&U&S&u+++tO.OJo9o*oWXYXCXCXUXYXWX",
"%o,oqo!o-O!O6+J&==+:e:D:g>.,|,v1:2i222j1z,1,$,1,z,i1j1z,)>0>P:D:P:B:+:$*R&U&J&U&Y&R&R&R&Y&F&u+#+gO.OPo9o,oOoEXUXUXYXEXOo",
"*o<oBo~o>O(Ou+Y&;=1:d:P:Z>$,@<Z172G2:2i1z,1,$,1,z,i1i1f,)>,>P:D:P:B:1:$*]&Y&U&Y&R&]&]&]&R&F&i+#+jOoO!oqo<o+oWXEXEXEXOo+o",
",o4oAo(o<O++a+]&>=3:x:->F>1,;<R1r2G2^1S<z,1,$,1,z,j1S<y,F>,>P:D:P:B:1:==}&R&Y&R&]&}&}&}&]&J&i+*+jOoO!oBo2o%oOoWXWXOo+o*o",
"2o9oGo'otO#+c&o*1:9:B:,>)>y,S<^1g2g2^1S<z,1,$,1,z,j1;<1,Z>->P:D:P:D:3:==o*]&]&]&}&o*o*o*}&U&a+1+EO-O~oAo4o*o+o+o+o%o*o,o",
"4oqoPo.OjO1+S&==3:d:D:0>}>f,j122G2i2R1;<f,1,$,1,|,j1@<$,Z>->D:D:P:D:3:;=o*}&}&}&o*$*==$*}&U&c&1+EO>O(oGo9o<o*o%o%o*o<o2o",
"qoAo!ooOEO6+J&>=e:x:P:g>.,z,v172#3r2Z1;<f,1,$,1,|,j1z,.,g>->D:D:P:P:9:>=$*o*o*o*$*==;===o*Y&c&4+!O<O'oJoqo2o,o,o,o<o2o9o",
"BoGo(o>O(Ou+Y&1:d:B:#>Z>$,@<Z1r2#372v1@<f,1,$,y,|,i1f,}>g>#>D:D:#>P:e:+:==$*$*$*==;=>=;=$*R&C&6+(O3O}oPoBo4o2o<o2o4o9oBo",
"GoPo'o3O'Oi+]&9:x:D:,>F>1,;<R1g2G222j1@<y,$,$,y,|,S<f,}>g>#>D:D:#>P:e:+:;=====;=>=>=+:>===]&S&6+'O3O.O!oAoqo4o4o4o9oBoAo",
"Po~o.OtO#+c&o*d:D:#>0>)>y,S<^1G2g2:2j1|,y,$,$,y,|,@<y,)>0>#>D:D:#>#>d:1:>=;=;=>=+:1:1:+:;=}&F&9+++tOoO~oGoBoqo9oqoBoGoJo",
"~o(o-OjO1+S&==B:P:->g>}>f,i1:2X3i2^1i1|,y,$,$,y,|,|,1,)>0>#>P:P:->#>x:3:+:>=>=+:1:3:3:1:>=o*J&u+++gO-O(oPoGoBoBoAoGoPo!o",
"'o}o>O!O6+J&>=P:#>,>Z>.,z,j122X3r2R1S<|,y,$,$,y,|,z,$,F>0>#>P:P:,>->x:9:1:+:1:1:3:9:9:9:+:$*J&i+#+jO>O'o!oJoGoGoJoPo~o(o",
".OoO3O'Ou+Y&1:->,>0>F>$,|,v1r2G222Z1S<z,y,$,$,y,@<f,.,F>0>#>P:#>,>,>B:e:3:3:3:9:e:e:d:e:1:==U&a+*+EO<O.O(o!oPoPo!o~o'o}o",
"-O>OgO#+a+]&9:,>0>Z>)>1,@<Z1i2i2:2v1;<z,1,$,1,y,@<y,.,F>0>->P:#>0>,>D:d:9:9:9:e:d:x:x:d:3:;=Y&c&1+!O3OoO'o~o~o~o(o'o.OoO",
"<O3OEO*+C&o*d:g>g>F>.,y,;<R1g2r2^1j1;<z,1,$,1,y,|,y,}>Z>0>->#>->g>0>P:x:e:e:e:d:x:B:B:x:9:;=R&C&4+(OtO-O}o'o(o'o}ooO-O>O",
"tOgO(O4+F&==B:Z>Z>)>$,z,i1:2g222R1i1@<f,1,$,1,y,z,1,}>Z>0>->#>->g>g>P:B:d:d:x:B:D:D:D:B:e:>=]&C&6+'OgO<OoO.O}o.OoO>O3OtO",
"jOEO++9+U&>=P:F>)>}>1,|,j122r2:2Z1i1|,f,1,$,1,f,f,$,)>Z>0>->->,>Z>g>#>D:x:x:B:D:P:#>P:D:d:+:}&S&9+++EO3O>OoOoO-O>O3OgOjO",
"!O(O*+a+R&1:,>}>}>.,y,@<v17222R1v1S<|,f,1,$,1,f,y,.,)>Z>0>,>->0>F>Z>->P:D:B:D:P:#>->->P:x:1:o*F&u+*+!OtO<O>O>O<OtOgOEO!O",
"++++4+C&}&e:g>.,.,1,f,;<Z1r2:2Z1j1;<|,y,1,$,1,f,1,.,)>Z>0>,>,>0>)>F>,>#>P:P:P:#>->,>,>#>B:3:$*J&i+1+(OjOtO3O3OtOjO!O'O++",
"*+*+9+F&$*x:F>$,1,y,z,S<R172R1v1i1@<z,y,1,$,1,f,$,}>F>Z>g>0>0>g>}>F>0>->#>#>->,>0>0>0>,>P:9:==U&a+4+++EOgOgOgOjO!O'O#+*+",
"4+6+a+U&;=D:}>y,y,f,@<i1^122Z1j1S<@<z,y,1,$,1,y,.,}>F>Z>g>g>g>Z>.,)>g>,>->->,>0>g>Z>g>0>#>e:;=Y&c&6+#+(OEOEOEO!O'O*+4+6+",
"u+u+C&R&1:#>$,f,f,z,;<v122^1j1i1;<|,f,y,1,1,1,1,.,)>F>Z>Z>g>Z>F>$,}>g>0>,>,>0>g>Z>F>Z>,>->d:>=R&C&9+*+'O(O!O(O++*+4+9+u+",
"a+c&F&o*9:,>f,z,z,|,S<Z172Z1i1;<@<|,f,y,1,1,1,$,}>)>F>F>Z>Z>Z>)>1,.,Z>g>0>0>g>F>)>)>g>,>,>x:+:]&S&u+4+#+++'O++*+4+u+a+c&",
"S&S&Y&==d:Z>|,@<@<;<i1R1:2v1S<@<|,z,f,1,1,1,$,.,}>)>F>F>F>F>F>}>f,$,F>Z>g>Z>F>)>}>)>0>->,>B:1:}&J&a+6+*+#+#+*+4+u+a+C&S&",
"J&J&]&>=D:)>;<;<;<S<j1^1^1i1;<|,|,z,y,1,1,1,.,}>)>F>F>F>)>)>)>.,z,$,)>F>Z>F>)>}>.,F>,>#>->D:3:o*U&c&9+4+1+1+6+u+a+S&J&U&",
"R&R&o*3:#>.,i1S<S<i1Z1:2Z1S<|,z,z,f,y,1,1,$,}>)>)>F>F>)>)>}>.,1,|,1,}>)>F>)>}>.,$,Z>->#>->P:9:$*Y&C&i+9+6+6+u+a+S&J&R&]&",
"o*o*;=e:,>y,j1i1i1j1R122v1;<z,z,f,f,y,1,1,.,)>F>F>F>)>)>}>.,$,y,;<y,.,}>)>}>.,$,.,g>#>P:->#>9:==R&S&a+u+u+u+a+C&J&R&}&o*",
"====+:B:Z>z,Z1j1j1v1^1^1i1|,f,f,f,y,y,1,$,}>F>F>F>F>)>}>.,$,1,f,S<f,$,.,.,.,$,y,}>0>#>P:#>->e:;=]&J&c&a+i+a+C&J&R&o*==;=",
"+:+:9:P:)>@<R1Z1v1R1:2R1S<z,y,y,y,y,y,1,.,)>F>Z>F>F>)>.,$,1,y,|,S<z,1,$,$,$,y,f,)>,>P:D:#>,>d:>=}&U&S&c&c&C&F&Y&}&==+:1:",
"9:3:x:,>.,i1^1R1R1^122v1@<f,1,1,y,y,y,$,}>F>Z>Z>Z>F>}>.,1,y,z,@<i1z,y,1,1,1,f,y,F>->D:B:#>0>x:+:o*Y&F&S&S&F&Y&}&==+:9:e:",
"x:d:D:g>y,v1:2^1^1:222j1|,y,$,1,1,y,y,.,F>Z>g>g>Z>)>}>$,y,z,|,;<j1|,f,y,y,y,z,1,g>#>B:B:P:g>B:1:$*R&U&J&J&U&]&$*+:9:x:B:",
"D:D:->)>z,R122:2:222^1S<z,1,.,$,1,y,y,}>Z>g>0>g>Z>)>.,1,f,|,@<i1v1@<f,y,f,f,|,.,0>P:x:x:P:g>D:3:==]&Y&U&Y&R&o*>=3:x:D:#>",
"->->g>.,;<2272222272R1;<y,$,.,.,1,1,$,)>g>0>0>g>Z>)>.,y,z,@<S<j1v1;<z,f,z,z,@<}>,>D:x:x:P:Z>P:9:;=o*R&R&R&}&==1:d:D:->,>",
"g>0>F>y,i1r2r27272r2v1|,1,.,}>.,$,1,.,Z>0>,>,>0>Z>)>$,f,|,S<i1Z1Z1S<|,z,z,|,z,)>->B:d:x:P:Z>P:e:>=$*}&]&}&$*+:9:B:->g>Z>",
")>F>.,z,Z1G2i2r2r272j1z,$,}>)>.,$,1,}>g>,>,>,>0>Z>}>1,z,;<i1v1^1R1S<@<|,|,@<f,Z>#>x:e:d:P:Z>#>d:+:==o*o*$*;=3:x:#>g>)>}>",
"$,.,y,;<^1X3g2i2i2:2S<f,.,)>)>}>$,1,)>0>->->->0>Z>}>y,|,S<v1R1:2R1i1;<@<@<;<1,g>P:d:e:d:D:Z>->d:1:;=$*$*;=+:e:D:0>)>$,1,",
"f,y,z,j172#3G2g2g2R1;<y,}>F>F>}>$,$,Z>,>->#>->0>F>.,y,@<i1Z1^172^1j1;<;<;<S<$,0>D:e:9:d:D:Z>,>x:3:>=;=;=+:3:x:->Z>$,f,z,",
"@<z,;<Z1i2#3X3G2i2Z1|,1,)>F>F>}>$,.,g>->#>#>->0>F>$,f,;<v1^122i2:2j1S<;<S<@<.,,>B:e:9:e:D:Z>,>B:9:+:>=>=1:e:P:0>}>y,@<;<",
"S<;<j1:2X3=3#3X3r2j1z,.,F>Z>F>}>$,}>0>#>P:P:->0>F>$,z,i1Z122r2G2:2v1i1S<S<|,)>->x:9:3:e:D:Z>0>D:e:1:+:1:9:x:->F>1,|,S<j1",
"v1j1Z172=3;3#3#322i1f,.,F>Z>Z>}>$,)>,>P:D:P:#>0>)>1,|,j1^172i2X322Z1i1i1i1z,F>#>d:3:3:e:D:F>0>D:e:3:3:3:d:D:0>}>f,S<v1R1",
"^1R1:2g223,3=3X3^1;<y,}>Z>g>Z>}>$,Z>->P:D:D:#>0>)>y,;<v1:2i2G2#372Z1j1i1j1y,Z>P:e:3:3:e:P:F>g>P:d:9:9:e:x:#>Z>$,@<v1^122",
"7222r2#353,3;3g2R1@<1,)>g>g>Z>}>$,g>#>D:B:D:#>g>}>f,S<R172G2#3=372R1v1j1i11,g>D:e:1:1:e:P:F>g>P:x:e:e:d:D:,>)>f,S<R172i2",
"g2i2G2;30323,3r2v1|,$,F>g>g>Z>}>.,0>P:B:B:D:#>g>.,z,i1^1i2X3;3=3r2R1v1j1;<.,,>B:9:1:1:e:P:)>g>#>B:d:d:B:#>g>.,|,v122g2G2",
"#3G2#3530353=372j1z,.,Z>g>0>Z>}>}>,>D:x:x:D:->g>.,|,j1:2g2=323;3r2^1Z1v1@<}>->x:3:+:1:e:P:)>Z>#>B:x:x:D:->F>1,;<R1i2#3=3",
",3=3,3q3q353X3:2S<f,}>Z>0>0>Z>}>)>->D:x:x:D:->Z>$,@<v1^1g2,303;3i2^1Z1v1|,)>#>d:3:+:1:e:#>}>Z>->D:x:B:P:0>}>f,j122G2;323",
"532303y3q353G2^1;<y,)>g>0>0>Z>.,F>#>B:d:x:D:->Z>1,;<j1^1g223r3,3i2:2Z1v1f,F>P:e:1:+:1:e:#>}>Z>->D:B:D:#>g>.,|,Z1r2=353q3",
"r3q3r3y3r3,3i2Z1@<1,)>g>0>0>F>.,Z>P:x:d:d:D:->F>y,S<j1^1i223u3,3i2:2R1j1y,Z>P:e:1:+:1:e:#>.,Z>->P:D:P:,>F>1,;<^1G2,3r3u3",
"i3y3i3u3q3=372v1|,$,F>g>0>g>F>$,g>P:d:e:d:D:,>)>f,S<j1^1i223p3,3g2:2R1S<1,g>D:9:+:+:1:d:->$,Z>->P:D:#>0>)>f,i122#303u3p3"
};
